UART/VERIF/transcript
# do run.do
# vsim -voptargs=""+acc"" work.uart_tb 
# Start time: 14:18:29 on Apr 15,2025
# ** Note: (vsim-3813) Design is being optimized due to module recompilation...
# //  Questa Sim-64
# //  Version 10.7c win64 Aug 18 2018
# //
# //  Copyright 1991-2018 Mentor Graphics Corporation
# //  All Rights Reserved.
# //
# //  QuestaSim and its associated documentation contain trade
# //  secrets and commercial or financial information that are the property of
# //  Mentor Graphics Corporation and are privileged, confidential,
# //  and exempt from disclosure under the Freedom of Information Act,
# //  5 U.S.C. Section 552. Furthermore, this information
# //  is prohibited from disclosure under the Trade Secrets Act,
# //  18 U.S.C. Section 1905.
# //
# Loading sv_std.std
# Loading work.uart_if(fast)
# Loading mtiUvm.uvm_pkg
# Loading work.uart_pkg(fast)
# Loading work.uart_tb(fast)
# Loading work.uart_if(fast)
# Loading work.uart_top(fast)
# Loading work.uart_clk(fast)
# Loading work.uart_tx(fast)
# Loading work.uart_rx(fast)
# Loading mtiUvm.questa_uvm_pkg(fast)
# Loading C:/questasim64_10.7c/uvm-1.1d\win64\uvm_dpi.dll
# ----------------------------------------------------------------
# UVM-1.1d
# (C) 2007-2013 Mentor Graphics Corporation
# (C) 2007-2013 Cadence Design Systems, Inc.
# (C) 2006-2013 Synopsys, Inc.
# (C) 2011-2013 Cypress Semiconductor Corp.
# ----------------------------------------------------------------
# 
#   ***********       IMPORTANT RELEASE NOTES         ************
# 
#   You are using a version of the UVM library that has been compiled
#   with `UVM_NO_DEPRECATED undefined.
#   See http://www.eda.org/svdb/view.php?id=3313 for more details.
# 
#   You are using a version of the UVM library that has been compiled
#   with `UVM_OBJECT_MUST_HAVE_CONSTRUCTOR undefined.
#   See http://www.eda.org/svdb/view.php?id=3770 for more details.
# 
#       (Specify +UVM_NO_RELNOTES to turn off this notice)
# 
# UVM_INFO verilog_src/questa_uvm_pkg-1.2/src/questa_uvm_pkg.sv(215) @ 0: reporter [Questa UVM] QUESTA_UVM-1.2.3
# UVM_INFO verilog_src/questa_uvm_pkg-1.2/src/questa_uvm_pkg.sv(216) @ 0: reporter [Questa UVM]  questa_uvm::init(+struct)
# ** Warning: (vsim-PLI-3110) $dumpfile : This task can be called only once. Please use $fdumpfile()
# for multiple files.
#    Time: 0 ns  Iteration: 0  Process: /uart_tb/#INITIAL#26,37 File: uart_tb.sv Line: 38
# UVM_INFO @ 0: reporter [RNTST] Running test uart_test...
# UVM_INFO uart_driver.sv(30) @ 0: uvm_test_top.env.agent.drv [DRIVER] SYSTEM RESET : Start of Simulation
# UVM_INFO uart_monitor.sv(27) @ 10: uvm_test_top.env.agent.mon [MONITOR] SYSTEM RESET DETECTED
# UVM_INFO uart_scoreboard.sv(44) @ 10: uvm_test_top.env.scb [SCOREBOARD] BAUD=x LENGTH=x PARITY_EN=x PARITY_TYPE=x STOP=x TX_DATA=xxxxxxxx RX_DATA=xxxxxxxx
# UVM_INFO uart_scoreboard.sv(46) @ 10: uvm_test_top.env.scb [SCOREBOARD] SYSTEM RESET
# UVM_INFO uart_scoreboard.sv(60) @ 10: uvm_test_top.env.scb [SCOREBOARD] [ACCURACY]: x%
# -------------------------------------------------------------------------------------------------------------------------------
# UVM_INFO uart_driver.sv(47) @ 10: uvm_test_top.env.agent.drv [DRIVER] BAUD=115200 LENGTH=5 TX_DATA=00101011 PARITY_EN=0 PARITY_TYPE=1 STOP=0
# UVM_INFO uart_monitor.sv(45) @ 61590: uvm_test_top.env.agent.mon [MONITOR] BAUD=115200 LENGTH=5 TX_DATA=00101011 PARITY_EN=0 PARITY_TYPE=1 STOP=0 TX_ERROR=0 RX_ERROR=0
# UVM_INFO uart_scoreboard.sv(44) @ 61590: uvm_test_top.env.scb [SCOREBOARD] BAUD=115200 LENGTH=5 PARITY_EN=0 PARITY_TYPE=1 STOP=0 TX_DATA=00101011 RX_DATA=00001011
# UVM_INFO uart_scoreboard.sv(50) @ 61590: uvm_test_top.env.scb [SCOREBOARD] TEST PASSED
# UVM_INFO uart_scoreboard.sv(60) @ 61590: uvm_test_top.env.scb [SCOREBOARD] [ACCURACY]: 100%
# -------------------------------------------------------------------------------------------------------------------------------
# UVM_INFO uart_driver.sv(47) @ 61590: uvm_test_top.env.agent.drv [DRIVER] BAUD=115200 LENGTH=8 TX_DATA=01011000 PARITY_EN=1 PARITY_TYPE=1 STOP=0
# UVM_INFO uart_monitor.sv(45) @ 173910: uvm_test_top.env.agent.mon [MONITOR] BAUD=115200 LENGTH=8 TX_DATA=01011000 PARITY_EN=1 PARITY_TYPE=1 STOP=0 TX_ERROR=0 RX_ERROR=0
# UVM_INFO uart_scoreboard.sv(44) @ 173910: uvm_test_top.env.scb [SCOREBOARD] BAUD=115200 LENGTH=8 PARITY_EN=1 PARITY_TYPE=1 STOP=0 TX_DATA=01011000 RX_DATA=01011000
# UVM_INFO uart_scoreboard.sv(50) @ 173910: uvm_test_top.env.scb [SCOREBOARD] TEST PASSED
# UVM_INFO uart_scoreboard.sv(60) @ 173910: uvm_test_top.env.scb [SCOREBOARD] [ACCURACY]: 100%
# -------------------------------------------------------------------------------------------------------------------------------
# UVM_INFO uart_driver.sv(47) @ 173910: uvm_test_top.env.agent.drv [DRIVER] BAUD=115200 LENGTH=5 TX_DATA=01011111 PARITY_EN=0 PARITY_TYPE=0 STOP=1
# UVM_INFO uart_monitor.sv(45) @ 260850: uvm_test_top.env.agent.mon [MONITOR] BAUD=115200 LENGTH=5 TX_DATA=01011111 PARITY_EN=0 PARITY_TYPE=0 STOP=1 TX_ERROR=0 RX_ERROR=0
# UVM_INFO uart_scoreboard.sv(44) @ 260850: uvm_test_top.env.scb [SCOREBOARD] BAUD=115200 LENGTH=5 PARITY_EN=0 PARITY_TYPE=0 STOP=1 TX_DATA=01011111 RX_DATA=00011111
# UVM_INFO uart_scoreboard.sv(50) @ 260850: uvm_test_top.env.scb [SCOREBOARD] TEST PASSED
# UVM_INFO uart_scoreboard.sv(60) @ 260850: uvm_test_top.env.scb [SCOREBOARD] [ACCURACY]: 100%
# -------------------------------------------------------------------------------------------------------------------------------
# UVM_INFO uart_driver.sv(47) @ 260850: uvm_test_top.env.agent.drv [DRIVER] BAUD=115200 LENGTH=8 TX_DATA=01111001 PARITY_EN=0 PARITY_TYPE=1 STOP=1
# UVM_INFO uart_monitor.sv(45) @ 373710: uvm_test_top.env.agent.mon [MONITOR] BAUD=115200 LENGTH=8 TX_DATA=01111001 PARITY_EN=0 PARITY_TYPE=1 STOP=1 TX_ERROR=0 RX_ERROR=0
# UVM_INFO uart_scoreboard.sv(44) @ 373710: uvm_test_top.env.scb [SCOREBOARD] BAUD=115200 LENGTH=8 PARITY_EN=0 PARITY_TYPE=1 STOP=1 TX_DATA=01111001 RX_DATA=01111001
# UVM_INFO uart_scoreboard.sv(50) @ 373710: uvm_test_top.env.scb [SCOREBOARD] TEST PASSED
# UVM_INFO uart_scoreboard.sv(60) @ 373710: uvm_test_top.env.scb [SCOREBOARD] [ACCURACY]: 100%
# -------------------------------------------------------------------------------------------------------------------------------
# UVM_INFO uart_driver.sv(47) @ 373710: uvm_test_top.env.agent.drv [DRIVER] BAUD=115200 LENGTH=6 TX_DATA=01100100 PARITY_EN=1 PARITY_TYPE=1 STOP=0
# UVM_INFO uart_monitor.sv(45) @ 469290: uvm_test_top.env.agent.mon [MONITOR] BAUD=115200 LENGTH=6 TX_DATA=01100100 PARITY_EN=1 PARITY_TYPE=1 STOP=0 TX_ERROR=0 RX_ERROR=0
# UVM_INFO uart_scoreboard.sv(44) @ 469290: uvm_test_top.env.scb [SCOREBOARD] BAUD=115200 LENGTH=6 PARITY_EN=1 PARITY_TYPE=1 STOP=0 TX_DATA=01100100 RX_DATA=00100100
# UVM_INFO uart_scoreboard.sv(50) @ 469290: uvm_test_top.env.scb [SCOREBOARD] TEST PASSED
# UVM_INFO uart_scoreboard.sv(60) @ 469290: uvm_test_top.env.scb [SCOREBOARD] [ACCURACY]: 100%
# -------------------------------------------------------------------------------------------------------------------------------
# UVM_INFO uart_driver.sv(47) @ 469290: uvm_test_top.env.agent.drv [DRIVER] BAUD=115200 LENGTH=8 TX_DATA=11111000 PARITY_EN=1 PARITY_TYPE=1 STOP=0
# UVM_INFO uart_monitor.sv(45) @ 582150: uvm_test_top.env.agent.mon [MONITOR] BAUD=115200 LENGTH=8 TX_DATA=11111000 PARITY_EN=1 PARITY_TYPE=1 STOP=0 TX_ERROR=0 RX_ERROR=0
# UVM_INFO uart_scoreboard.sv(44) @ 582150: uvm_test_top.env.scb [SCOREBOARD] BAUD=115200 LENGTH=8 PARITY_EN=1 PARITY_TYPE=1 STOP=0 TX_DATA=11111000 RX_DATA=11111000
# UVM_INFO uart_scoreboard.sv(50) @ 582150: uvm_test_top.env.scb [SCOREBOARD] TEST PASSED
# UVM_INFO uart_scoreboard.sv(60) @ 582150: uvm_test_top.env.scb [SCOREBOARD] [ACCURACY]: 100%
# -------------------------------------------------------------------------------------------------------------------------------
# UVM_INFO uart_driver.sv(47) @ 582150: uvm_test_top.env.agent.drv [DRIVER] BAUD=115200 LENGTH=6 TX_DATA=10000100 PARITY_EN=1 PARITY_TYPE=0 STOP=0
# UVM_INFO uart_monitor.sv(45) @ 677730: uvm_test_top.env.agent.mon [MONITOR] BAUD=115200 LENGTH=6 TX_DATA=10000100 PARITY_EN=1 PARITY_TYPE=0 STOP=0 TX_ERROR=0 RX_ERROR=0
# UVM_INFO uart_scoreboard.sv(44) @ 677730: uvm_test_top.env.scb [SCOREBOARD] BAUD=115200 LENGTH=6 PARITY_EN=1 PARITY_TYPE=0 STOP=0 TX_DATA=10000100 RX_DATA=00000100
# UVM_INFO uart_scoreboard.sv(50) @ 677730: uvm_test_top.env.scb [SCOREBOARD] TEST PASSED
# UVM_INFO uart_scoreboard.sv(60) @ 677730: uvm_test_top.env.scb [SCOREBOARD] [ACCURACY]: 100%
# -------------------------------------------------------------------------------------------------------------------------------
# UVM_INFO uart_driver.sv(47) @ 677730: uvm_test_top.env.agent.drv [DRIVER] BAUD=115200 LENGTH=8 TX_DATA=01001010 PARITY_EN=0 PARITY_TYPE=0 STOP=1
# UVM_INFO uart_monitor.sv(45) @ 790050: uvm_test_top.env.agent.mon [MONITOR] BAUD=115200 LENGTH=8 TX_DATA=01001010 PARITY_EN=0 PARITY_TYPE=0 STOP=1 TX_ERROR=0 RX_ERROR=0
# UVM_INFO uart_scoreboard.sv(44) @ 790050: uvm_test_top.env.scb [SCOREBOARD] BAUD=115200 LENGTH=8 PARITY_EN=0 PARITY_TYPE=0 STOP=1 TX_DATA=01001010 RX_DATA=01001010
# UVM_INFO uart_scoreboard.sv(50) @ 790050: uvm_test_top.env.scb [SCOREBOARD] TEST PASSED
# UVM_INFO uart_scoreboard.sv(60) @ 790050: uvm_test_top.env.scb [SCOREBOARD] [ACCURACY]: 100%
# -------------------------------------------------------------------------------------------------------------------------------
# UVM_INFO uart_driver.sv(47) @ 790050: uvm_test_top.env.agent.drv [DRIVER] BAUD=115200 LENGTH=6 TX_DATA=10110101 PARITY_EN=0 PARITY_TYPE=1 STOP=0
# UVM_INFO uart_monitor.sv(45) @ 876990: uvm_test_top.env.agent.mon [MONITOR] BAUD=115200 LENGTH=6 TX_DATA=10110101 PARITY_EN=0 PARITY_TYPE=1 STOP=0 TX_ERROR=0 RX_ERROR=0
# UVM_INFO uart_scoreboard.sv(44) @ 876990: uvm_test_top.env.scb [SCOREBOARD] BAUD=115200 LENGTH=6 PARITY_EN=0 PARITY_TYPE=1 STOP=0 TX_DATA=10110101 RX_DATA=00110101
# UVM_INFO uart_scoreboard.sv(50) @ 876990: uvm_test_top.env.scb [SCOREBOARD] TEST PASSED
# UVM_INFO uart_scoreboard.sv(60) @ 876990: uvm_test_top.env.scb [SCOREBOARD] [ACCURACY]: 100%
# -------------------------------------------------------------------------------------------------------------------------------
# UVM_INFO uart_driver.sv(47) @ 876990: uvm_test_top.env.agent.drv [DRIVER] BAUD=115200 LENGTH=5 TX_DATA=01110001 PARITY_EN=0 PARITY_TYPE=1 STOP=1
# UVM_INFO uart_monitor.sv(45) @ 963930: uvm_test_top.env.agent.mon [MONITOR] BAUD=115200 LENGTH=5 TX_DATA=01110001 PARITY_EN=0 PARITY_TYPE=1 STOP=1 TX_ERROR=0 RX_ERROR=0
# UVM_INFO uart_scoreboard.sv(44) @ 963930: uvm_test_top.env.scb [SCOREBOARD] BAUD=115200 LENGTH=5 PARITY_EN=0 PARITY_TYPE=1 STOP=1 TX_DATA=01110001 RX_DATA=00010001
# UVM_INFO uart_scoreboard.sv(50) @ 963930: uvm_test_top.env.scb [SCOREBOARD] TEST PASSED
# UVM_INFO uart_scoreboard.sv(60) @ 963930: uvm_test_top.env.scb [SCOREBOARD] [ACCURACY]: 100%
# -------------------------------------------------------------------------------------------------------------------------------
# UVM_INFO uart_driver.sv(47) @ 963930: uvm_test_top.env.agent.drv [DRIVER] BAUD=115200 LENGTH=6 TX_DATA=00001000 PARITY_EN=1 PARITY_TYPE=1 STOP=1
# UVM_INFO uart_monitor.sv(45) @ 1068150: uvm_test_top.env.agent.mon [MONITOR] BAUD=115200 LENGTH=6 TX_DATA=00001000 PARITY_EN=1 PARITY_TYPE=1 STOP=1 TX_ERROR=0 RX_ERROR=0
# UVM_INFO uart_scoreboard.sv(44) @ 1068150: uvm_test_top.env.scb [SCOREBOARD] BAUD=115200 LENGTH=6 PARITY_EN=1 PARITY_TYPE=1 STOP=1 TX_DATA=00001000 RX_DATA=00001000
# UVM_INFO uart_scoreboard.sv(50) @ 1068150: uvm_test_top.env.scb [SCOREBOARD] TEST PASSED
# UVM_INFO uart_scoreboard.sv(60) @ 1068150: uvm_test_top.env.scb [SCOREBOARD] [ACCURACY]: 100%
# -------------------------------------------------------------------------------------------------------------------------------
# UVM_INFO uart_driver.sv(47) @ 1068150: uvm_test_top.env.agent.drv [DRIVER] BAUD=115200 LENGTH=7 TX_DATA=01001010 PARITY_EN=0 PARITY_TYPE=1 STOP=0
# UVM_INFO uart_monitor.sv(45) @ 1163730: uvm_test_top.env.agent.mon [MONITOR] BAUD=115200 LENGTH=7 TX_DATA=01001010 PARITY_EN=0 PARITY_TYPE=1 STOP=0 TX_ERROR=0 RX_ERROR=0
# UVM_INFO uart_scoreboard.sv(44) @ 1163730: uvm_test_top.env.scb [SCOREBOARD] BAUD=115200 LENGTH=7 PARITY_EN=0 PARITY_TYPE=1 STOP=0 TX_DATA=01001010 RX_DATA=01001010
# UVM_INFO uart_scoreboard.sv(50) @ 1163730: uvm_test_top.env.scb [SCOREBOARD] TEST PASSED
# UVM_INFO uart_scoreboard.sv(60) @ 1163730: uvm_test_top.env.scb [SCOREBOARD] [ACCURACY]: 100%
# -------------------------------------------------------------------------------------------------------------------------------
# UVM_INFO uart_driver.sv(47) @ 1163730: uvm_test_top.env.agent.drv [DRIVER] BAUD=115200 LENGTH=5 TX_DATA=11000000 PARITY_EN=0 PARITY_TYPE=1 STOP=1
# UVM_INFO uart_monitor.sv(45) @ 1250670: uvm_test_top.env.agent.mon [MONITOR] BAUD=115200 LENGTH=5 TX_DATA=11000000 PARITY_EN=0 PARITY_TYPE=1 STOP=1 TX_ERROR=0 RX_ERROR=0
# UVM_INFO uart_scoreboard.sv(44) @ 1250670: uvm_test_top.env.scb [SCOREBOARD] BAUD=115200 LENGTH=5 PARITY_EN=0 PARITY_TYPE=1 STOP=1 TX_DATA=11000000 RX_DATA=00000000
# UVM_INFO uart_scoreboard.sv(50) @ 1250670: uvm_test_top.env.scb [SCOREBOARD] TEST PASSED
# UVM_INFO uart_scoreboard.sv(60) @ 1250670: uvm_test_top.env.scb [SCOREBOARD] [ACCURACY]: 100%
# -------------------------------------------------------------------------------------------------------------------------------
# UVM_INFO uart_driver.sv(47) @ 1250670: uvm_test_top.env.agent.drv [DRIVER] BAUD=115200 LENGTH=8 TX_DATA=01010101 PARITY_EN=0 PARITY_TYPE=1 STOP=0
# UVM_INFO uart_monitor.sv(45) @ 1354350: uvm_test_top.env.agent.mon [MONITOR] BAUD=115200 LENGTH=8 TX_DATA=01010101 PARITY_EN=0 PARITY_TYPE=1 STOP=0 TX_ERROR=0 RX_ERROR=0
# UVM_INFO uart_scoreboard.sv(44) @ 1354350: uvm_test_top.env.scb [SCOREBOARD] BAUD=115200 LENGTH=8 PARITY_EN=0 PARITY_TYPE=1 STOP=0 TX_DATA=01010101 RX_DATA=01010101
# UVM_INFO uart_scoreboard.sv(50) @ 1354350: uvm_test_top.env.scb [SCOREBOARD] TEST PASSED
# UVM_INFO uart_scoreboard.sv(60) @ 1354350: uvm_test_top.env.scb [SCOREBOARD] [ACCURACY]: 100%
# -------------------------------------------------------------------------------------------------------------------------------
# UVM_INFO uart_driver.sv(47) @ 1354350: uvm_test_top.env.agent.drv [DRIVER] BAUD=115200 LENGTH=7 TX_DATA=01101000 PARITY_EN=0 PARITY_TYPE=1 STOP=0
# UVM_INFO uart_monitor.sv(45) @ 1449930: uvm_test_top.env.agent.mon [MONITOR] BAUD=115200 LENGTH=7 TX_DATA=01101000 PARITY_EN=0 PARITY_TYPE=1 STOP=0 TX_ERROR=0 RX_ERROR=0
# UVM_INFO uart_scoreboard.sv(44) @ 1449930: uvm_test_top.env.scb [SCOREBOARD] BAUD=115200 LENGTH=7 PARITY_EN=0 PARITY_TYPE=1 STOP=0 TX_DATA=01101000 RX_DATA=01101000
# UVM_INFO uart_scoreboard.sv(50) @ 1449930: uvm_test_top.env.scb [SCOREBOARD] TEST PASSED
# UVM_INFO uart_scoreboard.sv(60) @ 1449930: uvm_test_top.env.scb [SCOREBOARD] [ACCURACY]: 100%
# -------------------------------------------------------------------------------------------------------------------------------
# UVM_INFO uart_driver.sv(47) @ 1449930: uvm_test_top.env.agent.drv [DRIVER] BAUD=115200 LENGTH=6 TX_DATA=10110111 PARITY_EN=0 PARITY_TYPE=1 STOP=1
# UVM_INFO uart_monitor.sv(45) @ 1545510: uvm_test_top.env.agent.mon [MONITOR] BAUD=115200 LENGTH=6 TX_DATA=10110111 PARITY_EN=0 PARITY_TYPE=1 STOP=1 TX_ERROR=0 RX_ERROR=0
# UVM_INFO uart_scoreboard.sv(44) @ 1545510: uvm_test_top.env.scb [SCOREBOARD] BAUD=115200 LENGTH=6 PARITY_EN=0 PARITY_TYPE=1 STOP=1 TX_DATA=10110111 RX_DATA=00110111
# UVM_INFO uart_scoreboard.sv(50) @ 1545510: uvm_test_top.env.scb [SCOREBOARD] TEST PASSED
# UVM_INFO uart_scoreboard.sv(60) @ 1545510: uvm_test_top.env.scb [SCOREBOARD] [ACCURACY]: 100%
# -------------------------------------------------------------------------------------------------------------------------------
# UVM_INFO uart_driver.sv(47) @ 1545510: uvm_test_top.env.agent.drv [DRIVER] BAUD=115200 LENGTH=5 TX_DATA=01101111 PARITY_EN=0 PARITY_TYPE=0 STOP=1
# UVM_INFO uart_monitor.sv(45) @ 1632450: uvm_test_top.env.agent.mon [MONITOR] BAUD=115200 LENGTH=5 TX_DATA=01101111 PARITY_EN=0 PARITY_TYPE=0 STOP=1 TX_ERROR=0 RX_ERROR=0
# UVM_INFO uart_scoreboard.sv(44) @ 1632450: uvm_test_top.env.scb [SCOREBOARD] BAUD=115200 LENGTH=5 PARITY_EN=0 PARITY_TYPE=0 STOP=1 TX_DATA=01101111 RX_DATA=00001111
# UVM_INFO uart_scoreboard.sv(50) @ 1632450: uvm_test_top.env.scb [SCOREBOARD] TEST PASSED
# UVM_INFO uart_scoreboard.sv(60) @ 1632450: uvm_test_top.env.scb [SCOREBOARD] [ACCURACY]: 100%
# -------------------------------------------------------------------------------------------------------------------------------
# UVM_INFO uart_driver.sv(47) @ 1632450: uvm_test_top.env.agent.drv [DRIVER] BAUD=115200 LENGTH=8 TX_DATA=01111101 PARITY_EN=0 PARITY_TYPE=1 STOP=1
# UVM_INFO uart_monitor.sv(45) @ 1745310: uvm_test_top.env.agent.mon [MONITOR] BAUD=115200 LENGTH=8 TX_DATA=01111101 PARITY_EN=0 PARITY_TYPE=1 STOP=1 TX_ERROR=0 RX_ERROR=0
# UVM_INFO uart_scoreboard.sv(44) @ 1745310: uvm_test_top.env.scb [SCOREBOARD] BAUD=115200 LENGTH=8 PARITY_EN=0 PARITY_TYPE=1 STOP=1 TX_DATA=01111101 RX_DATA=01111101
# UVM_INFO uart_scoreboard.sv(50) @ 1745310: uvm_test_top.env.scb [SCOREBOARD] TEST PASSED
# UVM_INFO uart_scoreboard.sv(60) @ 1745310: uvm_test_top.env.scb [SCOREBOARD] [ACCURACY]: 100%
# -------------------------------------------------------------------------------------------------------------------------------
# UVM_INFO uart_driver.sv(47) @ 1745310: uvm_test_top.env.agent.drv [DRIVER] BAUD=115200 LENGTH=5 TX_DATA=10001110 PARITY_EN=1 PARITY_TYPE=1 STOP=1
# UVM_INFO uart_monitor.sv(45) @ 1840890: uvm_test_top.env.agent.mon [MONITOR] BAUD=115200 LENGTH=5 TX_DATA=10001110 PARITY_EN=1 PARITY_TYPE=1 STOP=1 TX_ERROR=0 RX_ERROR=0
# UVM_INFO uart_scoreboard.sv(44) @ 1840890: uvm_test_top.env.scb [SCOREBOARD] BAUD=115200 LENGTH=5 PARITY_EN=1 PARITY_TYPE=1 STOP=1 TX_DATA=10001110 RX_DATA=00001110
# UVM_INFO uart_scoreboard.sv(50) @ 1840890: uvm_test_top.env.scb [SCOREBOARD] TEST PASSED
# UVM_INFO uart_scoreboard.sv(60) @ 1840890: uvm_test_top.env.scb [SCOREBOARD] [ACCURACY]: 100%
# -------------------------------------------------------------------------------------------------------------------------------
# UVM_INFO uart_driver.sv(47) @ 1840890: uvm_test_top.env.agent.drv [DRIVER] BAUD=115200 LENGTH=7 TX_DATA=01100110 PARITY_EN=1 PARITY_TYPE=0 STOP=0
# UVM_INFO uart_monitor.sv(45) @ 1944570: uvm_test_top.env.agent.mon [MONITOR] BAUD=115200 LENGTH=7 TX_DATA=01100110 PARITY_EN=1 PARITY_TYPE=0 STOP=0 TX_ERROR=0 RX_ERROR=0
# UVM_INFO uart_scoreboard.sv(44) @ 1944570: uvm_test_top.env.scb [SCOREBOARD] BAUD=115200 LENGTH=7 PARITY_EN=1 PARITY_TYPE=0 STOP=0 TX_DATA=01100110 RX_DATA=01100110
# UVM_INFO uart_scoreboard.sv(50) @ 1944570: uvm_test_top.env.scb [SCOREBOARD] TEST PASSED
# UVM_INFO uart_scoreboard.sv(60) @ 1944570: uvm_test_top.env.scb [SCOREBOARD] [ACCURACY]: 100%
# -------------------------------------------------------------------------------------------------------------------------------
# UVM_INFO uart_driver.sv(47) @ 1944570: uvm_test_top.env.agent.drv [DRIVER] BAUD=115200 LENGTH=5 TX_DATA=00001101 PARITY_EN=0 PARITY_TYPE=0 STOP=0
# UVM_INFO uart_monitor.sv(45) @ 2022870: uvm_test_top.env.agent.mon [MONITOR] BAUD=115200 LENGTH=5 TX_DATA=00001101 PARITY_EN=0 PARITY_TYPE=0 STOP=0 TX_ERROR=0 RX_ERROR=0
# UVM_INFO uart_scoreboard.sv(44) @ 2022870: uvm_test_top.env.scb [SCOREBOARD] BAUD=115200 LENGTH=5 PARITY_EN=0 PARITY_TYPE=0 STOP=0 TX_DATA=00001101 RX_DATA=00001101
# UVM_INFO uart_scoreboard.sv(50) @ 2022870: uvm_test_top.env.scb [SCOREBOARD] TEST PASSED
# UVM_INFO uart_scoreboard.sv(60) @ 2022870: uvm_test_top.env.scb [SCOREBOARD] [ACCURACY]: 100%
# -------------------------------------------------------------------------------------------------------------------------------
# UVM_INFO uart_driver.sv(47) @ 2022870: uvm_test_top.env.agent.drv [DRIVER] BAUD=115200 LENGTH=8 TX_DATA=10100010 PARITY_EN=0 PARITY_TYPE=1 STOP=1
# UVM_INFO uart_monitor.sv(45) @ 2135730: uvm_test_top.env.agent.mon [MONITOR] BAUD=115200 LENGTH=8 TX_DATA=10100010 PARITY_EN=0 PARITY_TYPE=1 STOP=1 TX_ERROR=0 RX_ERROR=0
# UVM_INFO uart_scoreboard.sv(44) @ 2135730: uvm_test_top.env.scb [SCOREBOARD] BAUD=115200 LENGTH=8 PARITY_EN=0 PARITY_TYPE=1 STOP=1 TX_DATA=10100010 RX_DATA=10100010
# UVM_INFO uart_scoreboard.sv(50) @ 2135730: uvm_test_top.env.scb [SCOREBOARD] TEST PASSED
# UVM_INFO uart_scoreboard.sv(60) @ 2135730: uvm_test_top.env.scb [SCOREBOARD] [ACCURACY]: 100%
# -------------------------------------------------------------------------------------------------------------------------------
# UVM_INFO uart_driver.sv(47) @ 2135730: uvm_test_top.env.agent.drv [DRIVER] BAUD=115200 LENGTH=8 TX_DATA=00000100 PARITY_EN=1 PARITY_TYPE=0 STOP=1
# UVM_INFO uart_monitor.sv(45) @ 2257230: uvm_test_top.env.agent.mon [MONITOR] BAUD=115200 LENGTH=8 TX_DATA=00000100 PARITY_EN=1 PARITY_TYPE=0 STOP=1 TX_ERROR=0 RX_ERROR=0
# UVM_INFO uart_scoreboard.sv(44) @ 2257230: uvm_test_top.env.scb [SCOREBOARD] BAUD=115200 LENGTH=8 PARITY_EN=1 PARITY_TYPE=0 STOP=1 TX_DATA=00000100 RX_DATA=00000100
# UVM_INFO uart_scoreboard.sv(50) @ 2257230: uvm_test_top.env.scb [SCOREBOARD] TEST PASSED
# UVM_INFO uart_scoreboard.sv(60) @ 2257230: uvm_test_top.env.scb [SCOREBOARD] [ACCURACY]: 100%
# -------------------------------------------------------------------------------------------------------------------------------
# UVM_INFO uart_driver.sv(47) @ 2257230: uvm_test_top.env.agent.drv [DRIVER] BAUD=115200 LENGTH=8 TX_DATA=10010100 PARITY_EN=1 PARITY_TYPE=1 STOP=1
# UVM_INFO uart_monitor.sv(45) @ 2378730: uvm_test_top.env.agent.mon [MONITOR] BAUD=115200 LENGTH=8 TX_DATA=10010100 PARITY_EN=1 PARITY_TYPE=1 STOP=1 TX_ERROR=0 RX_ERROR=0
# UVM_INFO uart_scoreboard.sv(44) @ 2378730: uvm_test_top.env.scb [SCOREBOARD] BAUD=115200 LENGTH=8 PARITY_EN=1 PARITY_TYPE=1 STOP=1 TX_DATA=10010100 RX_DATA=10010100
# UVM_INFO uart_scoreboard.sv(50) @ 2378730: uvm_test_top.env.scb [SCOREBOARD] TEST PASSED
# UVM_INFO uart_scoreboard.sv(60) @ 2378730: uvm_test_top.env.scb [SCOREBOARD] [ACCURACY]: 100%
# -------------------------------------------------------------------------------------------------------------------------------
# UVM_INFO uart_driver.sv(47) @ 2378730: uvm_test_top.env.agent.drv [DRIVER] BAUD=115200 LENGTH=8 TX_DATA=00111011 PARITY_EN=0 PARITY_TYPE=0 STOP=0
# UVM_INFO uart_monitor.sv(45) @ 2482950: uvm_test_top.env.agent.mon [MONITOR] BAUD=115200 LENGTH=8 TX_DATA=00111011 PARITY_EN=0 PARITY_TYPE=0 STOP=0 TX_ERROR=0 RX_ERROR=0
# UVM_INFO uart_scoreboard.sv(44) @ 2482950: uvm_test_top.env.scb [SCOREBOARD] BAUD=115200 LENGTH=8 PARITY_EN=0 PARITY_TYPE=0 STOP=0 TX_DATA=00111011 RX_DATA=00111011
# UVM_INFO uart_scoreboard.sv(50) @ 2482950: uvm_test_top.env.scb [SCOREBOARD] TEST PASSED
# UVM_INFO uart_scoreboard.sv(60) @ 2482950: uvm_test_top.env.scb [SCOREBOARD] [ACCURACY]: 100%
# -------------------------------------------------------------------------------------------------------------------------------
# UVM_INFO uart_driver.sv(47) @ 2482950: uvm_test_top.env.agent.drv [DRIVER] BAUD=115200 LENGTH=7 TX_DATA=01111001 PARITY_EN=1 PARITY_TYPE=1 STOP=0
# UVM_INFO uart_monitor.sv(45) @ 2587170: uvm_test_top.env.agent.mon [MONITOR] BAUD=115200 LENGTH=7 TX_DATA=01111001 PARITY_EN=1 PARITY_TYPE=1 STOP=0 TX_ERROR=0 RX_ERROR=0
# UVM_INFO uart_scoreboard.sv(44) @ 2587170: uvm_test_top.env.scb [SCOREBOARD] BAUD=115200 LENGTH=7 PARITY_EN=1 PARITY_TYPE=1 STOP=0 TX_DATA=01111001 RX_DATA=01111001
# UVM_INFO uart_scoreboard.sv(50) @ 2587170: uvm_test_top.env.scb [SCOREBOARD] TEST PASSED
# UVM_INFO uart_scoreboard.sv(60) @ 2587170: uvm_test_top.env.scb [SCOREBOARD] [ACCURACY]: 100%
# -------------------------------------------------------------------------------------------------------------------------------
# UVM_INFO uart_driver.sv(47) @ 2587170: uvm_test_top.env.agent.drv [DRIVER] BAUD=115200 LENGTH=6 TX_DATA=00100001 PARITY_EN=1 PARITY_TYPE=1 STOP=1
# UVM_INFO uart_monitor.sv(45) @ 2691390: uvm_test_top.env.agent.mon [MONITOR] BAUD=115200 LENGTH=6 TX_DATA=00100001 PARITY_EN=1 PARITY_TYPE=1 STOP=1 TX_ERROR=0 RX_ERROR=0
# UVM_INFO uart_scoreboard.sv(44) @ 2691390: uvm_test_top.env.scb [SCOREBOARD] BAUD=115200 LENGTH=6 PARITY_EN=1 PARITY_TYPE=1 STOP=1 TX_DATA=00100001 RX_DATA=00100001
# UVM_INFO uart_scoreboard.sv(50) @ 2691390: uvm_test_top.env.scb [SCOREBOARD] TEST PASSED
# UVM_INFO uart_scoreboard.sv(60) @ 2691390: uvm_test_top.env.scb [SCOREBOARD] [ACCURACY]: 100%
# -------------------------------------------------------------------------------------------------------------------------------
# UVM_INFO uart_driver.sv(47) @ 2691390: uvm_test_top.env.agent.drv [DRIVER] BAUD=115200 LENGTH=6 TX_DATA=10010010 PARITY_EN=0 PARITY_TYPE=1 STOP=0
