ALU_SIMPLE/dump.vcd
$date
	Sun Apr 13 23:31:22 2025
$end
$version
	QuestaSim Version 10.7c
$end
$timescale
	1ns
$end

$scope module alu_tb $end
$var reg 1 ! clk $end

$scope module tif $end
$var reg 1 " clk $end
$var reg 1 # rstn $end
$var reg 8 $ a [7:0] $end
$var reg 8 % b [7:0] $end
$var reg 4 & op_sel [3:0] $end
$var reg 16 ' alu_out [15:0] $end
$var reg 1 ( carry_out $end
$upscope $end

$scope module dut $end
$var wire 1 ) clk $end
$var wire 1 * rstn $end
$var wire 1 + a [7] $end
$var wire 1 , a [6] $end
$var wire 1 - a [5] $end
$var wire 1 . a [4] $end
$var wire 1 / a [3] $end
$var wire 1 0 a [2] $end
$var wire 1 1 a [1] $end
$var wire 1 2 a [0] $end
$var wire 1 3 b [7] $end
$var wire 1 4 b [6] $end
$var wire 1 5 b [5] $end
$var wire 1 6 b [4] $end
$var wire 1 7 b [3] $end
$var wire 1 8 b [2] $end
$var wire 1 9 b [1] $end
$var wire 1 : b [0] $end
$var wire 1 ; op_sel [3] $end
$var wire 1 < op_sel [2] $end
$var wire 1 = op_sel [1] $end
$var wire 1 > op_sel [0] $end
$var reg 16 ? alu_out [15:0] $end
$var reg 1 @ carry_out $end
$var reg 16 A alu_temp [15:0] $end
$var wire 1 B carry_temp [8] $end
$var wire 1 C carry_temp [7] $end
$var wire 1 D carry_temp [6] $end
$var wire 1 E carry_temp [5] $end
$var wire 1 F carry_temp [4] $end
$var wire 1 G carry_temp [3] $end
$var wire 1 H carry_temp [2] $end
$var wire 1 I carry_temp [1] $end
$var wire 1 J carry_temp [0] $end
$upscope $end
$upscope $end

$scope begin uvm_pkg $end
$var parameter 32 K UVM_HDL_MAX_WIDTH $end
$var parameter 32 L UVM_STREAMBITS $end
$var parameter 32 M UVM_RADIX $end
$var parameter 32 N UVM_MACRO_NUMFLAGS $end
$var parameter 32 O UVM_DEFAULT $end
$var parameter 32 P UVM_ALL_ON $end
$var parameter 32 Q UVM_FLAGS_ON $end
$var parameter 32 R UVM_FLAGS_OFF $end
$var parameter 32 S UVM_COPY $end
$var parameter 32 T UVM_NOCOPY $end
$var parameter 32 U UVM_COMPARE $end
$var parameter 32 V UVM_NOCOMPARE $end
$var parameter 32 W UVM_PRINT $end
$var parameter 32 X UVM_NOPRINT $end
$var parameter 32 Y UVM_RECORD $end
$var parameter 32 Z UVM_NORECORD $end
$var parameter 32 [ UVM_PACK $end
$var parameter 32 \ UVM_NOPACK $end
$var parameter 32 ] UVM_PHYSICAL $end
$var parameter 32 ^ UVM_ABSTRACT $end
$var parameter 32 _ UVM_READONLY $end
$var parameter 32 ` UVM_NODEFPRINT $end
$var parameter 32 a UVM_MACRO_EXTRAS $end
$var parameter 32 b UVM_FLAGS $end
$var parameter 32 c UVM_UNPACK $end
$var parameter 32 d UVM_CHECK_FIELDS $end
$var parameter 32 e UVM_END_DATA_EXTRA $end
$var parameter 32 f UVM_START_FUNCS $end
$var parameter 32 g UVM_SET $end
$var parameter 32 h UVM_SETINT $end
$var parameter 32 i UVM_SETOBJ $end
$var parameter 32 j UVM_SETSTR $end
$var parameter 32 k UVM_END_FUNCS $end
$var parameter 32 l UVM_STR_CRC_POLYNOMIAL $end
$var parameter 32 m UVM_STDOUT $end
$var parameter 32 n UVM_LINE_WIDTH $end
$var parameter 32 o UVM_NUM_LINES $end
$var parameter 32 p UVM_SMALL_STRING $end
$var parameter 32 q UVM_LARGE_STRING $end
$var reg 1 r uvm_start_uvm_declarations $end
$var integer 32 s uvm_global_random_seed $end
$var integer 32 t UVM_UNBOUNDED_CONNECTIONS $end

$scope function uvm_hdl_check_path $end
$var integer 32 u uvm_hdl_check_path $end
$upscope $end

$scope function uvm_hdl_deposit $end
$var integer 32 v uvm_hdl_deposit $end
$var reg 1024 w value [1023:0] $end
$upscope $end

$scope function uvm_hdl_force $end
$var integer 32 x uvm_hdl_force $end
$var reg 1024 y value [1023:0] $end
$upscope $end

$scope task uvm_hdl_force_time $end
$var reg 1024 z value [1023:0] $end
$var time 64 { force_time $end
$upscope $end

$scope function uvm_hdl_release_and_read $end
$var integer 32 | uvm_hdl_release_and_read $end
$var reg 1024 } value [1023:0] $end
$upscope $end

$scope function uvm_hdl_release $end
$var integer 32 ~ uvm_hdl_release $end
$upscope $end

$scope function uvm_hdl_read $end
$var integer 32 !! uvm_hdl_read $end
$var reg 1024 "! value [1023:0] $end
$upscope $end

$scope function uvm_dpi_regexec $end
$var integer 32 #! uvm_dpi_regexec $end
$upscope $end

$scope function uvm_re_match $end
$var integer 32 $! uvm_re_match $end
$upscope $end

$scope function uvm_radix_to_string $end
$var integer 32 %! radix $end
$upscope $end

$scope function uvm_instance_scope $end
$var reg 8 &! c [7:0] $end
$var integer 32 '! pos $end
$upscope $end

$scope function uvm_oneway_hash $end
$var integer 32 (! uvm_oneway_hash $end
$var integer 32 )! seed $end
$var reg 1 *! msb $end
$var reg 8 +! current_byte [7:0] $end
$var reg 32 ,! crc1 [31:0] $end
$upscope $end

$scope function uvm_create_random_seed $end
$var integer 32 -! uvm_create_random_seed $end
$upscope $end

$scope function uvm_leaf_scope $end
$var reg 8 .! scope_separator [7:0] $end
$var reg 8 /! bracket_match [7:0] $end
$var integer 32 0! pos $end
$var integer 32 1! bmatches $end
$upscope $end

$scope function uvm_vector_to_string $end
$var reg 4096 2! value [4095:0] $end
$var integer 32 3! size $end
$var integer 32 4! radix $end
$upscope $end

$scope function uvm_get_array_index_int $end
$var integer 32 5! uvm_get_array_index_int $end
$var reg 1 6! is_wildcard $end
$var integer 32 7! i $end
$upscope $end

$scope function uvm_get_array_index_string $end
$var reg 1 8! is_wildcard $end
$var integer 32 9! i $end
$upscope $end

$scope function uvm_is_array $end
$var reg 1 :! uvm_is_array $end
$upscope $end

$scope function set_global_timeout $end
$var time 64 ;! timeout $end
$var reg 1 <! overridable $end
$upscope $end

$scope function set_global_stop_timeout $end
$var time 64 =! timeout $end
$upscope $end

$scope function uvm_report_enabled $end
$var reg 1 >! uvm_report_enabled $end
$var integer 32 ?! verbosity $end
$var reg 2 @! severity [1:0] $end
$upscope $end

$scope function uvm_report $end
$var reg 2 A! severity [1:0] $end
$var integer 32 B! verbosity $end
$var integer 32 C! line $end
$upscope $end

$scope function uvm_report_info $end
$var integer 32 D! verbosity $end
$var integer 32 E! line $end
$upscope $end

$scope function uvm_report_warning $end
$var integer 32 F! verbosity $end
$var integer 32 G! line $end
$upscope $end

$scope function uvm_report_error $end
$var integer 32 H! verbosity $end
$var integer 32 I! line $end
$upscope $end

$scope function uvm_report_fatal $end
$var integer 32 J! verbosity $end
$var integer 32 K! line $end
$upscope $end

$scope function uvm_string_to_severity $end
$var reg 1 L! uvm_string_to_severity $end
$var reg 2 M! sev [1:0] $end
$upscope $end

$scope function set_config_int $end
$var reg 4096 N! value [4095:0] $end
$upscope $end

$scope function set_config_object $end
$var reg 1 O! clone $end
$upscope $end

$scope function uvm_is_match $end
$var reg 1 P! uvm_is_match $end
$upscope $end

$scope function uvm_string_to_bits $end
$var reg 115200 Q! uvm_string_to_bits [115199:0] $end
$upscope $end

$scope function uvm_bits_to_string $end
$var reg 115200 R! str [115199:0] $end
$upscope $end

$scope task uvm_wait_for_nba_region $end
$var integer 32 S! nba $end
$var integer 32 T! next_nba $end
$upscope $end
$upscope $end

$scope module uvm_root $end
$upscope $end

$scope module alu_tb $end

$scope module dut $end
$var wire 1 ) clk $end
$var wire 1 * rstn $end
$var wire 1 + a [7] $end
$var wire 1 , a [6] $end
$var wire 1 - a [5] $end
$var wire 1 . a [4] $end
$var wire 1 / a [3] $end
$var wire 1 0 a [2] $end
$var wire 1 1 a [1] $end
$var wire 1 2 a [0] $end
$var wire 1 3 b [7] $end
$var wire 1 4 b [6] $end
$var wire 1 5 b [5] $end
$var wire 1 6 b [4] $end
$var wire 1 7 b [3] $end
$var wire 1 8 b [2] $end
$var wire 1 9 b [1] $end
$var wire 1 : b [0] $end
$var wire 1 ; op_sel [3] $end
$var wire 1 < op_sel [2] $end
$var wire 1 = op_sel [1] $end
$var wire 1 > op_sel [0] $end
$var wire 1 B carry_temp [8] $end
$var wire 1 C carry_temp [7] $end
$var wire 1 D carry_temp [6] $end
$var wire 1 E carry_temp [5] $end
$var wire 1 F carry_temp [4] $end
$var wire 1 G carry_temp [3] $end
$var wire 1 H carry_temp [2] $end
$var wire 1 I carry_temp [1] $end
$var wire 1 J carry_temp [0] $end
$upscope $end
$upscope $end

$scope begin uvm_pkg $end

$scope function uvm_hdl_check_path $end
$upscope $end

$scope function uvm_hdl_deposit $end
$upscope $end

$scope function uvm_hdl_force $end
$upscope $end

$scope task uvm_hdl_force_time $end
$upscope $end

$scope function uvm_hdl_release_and_read $end
$upscope $end

$scope function uvm_hdl_release $end
$upscope $end

$scope function uvm_hdl_read $end
$upscope $end

$scope function uvm_dpi_get_next_arg_c $end
$upscope $end

$scope function uvm_dpi_get_tool_name_c $end
$upscope $end

$scope function uvm_dpi_get_tool_version_c $end
$upscope $end

$scope function uvm_dpi_get_next_arg $end
$upscope $end

$scope function uvm_dpi_get_tool_name $end
$upscope $end

$scope function uvm_dpi_get_tool_version $end
$upscope $end

$scope function uvm_dpi_regcomp $end
$upscope $end

$scope function uvm_dpi_regexec $end
$upscope $end

$scope function uvm_dpi_regfree $end
$upscope $end

$scope function uvm_re_match $end
$upscope $end

$scope function uvm_dump_re_cache $end
$upscope $end

$scope function uvm_glob_to_re $end
$upscope $end

$scope function uvm_revision_string $end
$upscope $end

$scope function uvm_radix_to_string $end
$upscope $end

$scope function uvm_instance_scope $end
$upscope $end

$scope function uvm_oneway_hash $end
$upscope $end

$scope function uvm_create_random_seed $end
$upscope $end

$scope function uvm_object_value_str $end
$upscope $end

$scope function uvm_leaf_scope $end
$upscope $end

$scope function uvm_vector_to_string $end
$upscope $end

$scope function uvm_get_array_index_int $end
$upscope $end

$scope function uvm_get_array_index_string $end
$upscope $end

$scope function uvm_is_array $end
$upscope $end

$scope function uvm_has_wildcard $end
$upscope $end

$scope task run_test $end
$upscope $end

$scope function global_stop_request $end
$upscope $end

$scope function set_global_timeout $end
$upscope $end

$scope function set_global_stop_timeout $end
$upscope $end

$scope function uvm_report_enabled $end
$upscope $end

$scope function uvm_report $end
$upscope $end

$scope function uvm_report_info $end
$upscope $end

$scope function uvm_report_warning $end
$upscope $end

$scope function uvm_report_error $end
$upscope $end

$scope function uvm_report_fatal $end
$upscope $end

$scope function uvm_string_to_severity $end
$upscope $end

$scope function uvm_string_to_action $end
$upscope $end

$scope function set_config_int $end
$upscope $end

$scope function set_config_object $end
$upscope $end

$scope function set_config_string $end
$upscope $end

$scope function uvm_is_match $end
$upscope $end

$scope function uvm_string_to_bits $end
$upscope $end

$scope function uvm_bits_to_string $end
$upscope $end

$scope task uvm_wait_for_nba_region $end
$upscope $end

$scope function uvm_split_string $end
$upscope $end

$scope function uvm_hdl_concat2string $end
$upscope $end
$upscope $end

$scope begin alu_pkg $end
$upscope $end

$scope begin std $end
$upscope $end

$scope begin questa_uvm_pkg $end
$upscope $end
$enddefinitions $end
#0
$dumpvars
08!
0:!
0L!
b0 M!
bx Q!
bx R!
bx w
bx y
bx z
bx }
bx "!
1r
0*!
b1101101 +!
b10101000101110010000011110100000 ,!
bx 2!
06!
0<!
0>!
b0 @!
b0 A!
bx N!
0O!
0P!
0!
0"
0#
b0 $
b0 %
b0 &
b0 '
0(
b0 ?
0@
b0 A
b10000000000 K
b1000000000000 L
b1111000000000000000000000000 M
b10001 N
b10101010101 O
b101010101 P
b101010101 Q
b0 R
b1 S
b10 T
b100 U
b1000 V
b10000 W
b100000 X
b1000000 Y
b10000000 Z
b100000000 [
b1000000000 \
b10000000000000 ]
b100000000000000 ^
b1000000000000000 _
b10000000000000000 `
b100000000000000000 a
b100000000000000001 b
b100000000000000010 c
b100000000000000011 d
b100000000000000100 e
b100000000000000101 f
b100000000000000110 g
b100000000000000110 h
b100000000000000111 i
b100000000000001000 j
b100000000000001000 k
b100110000010001110110110110 l
b1 m
b1111000 n
b1111000 o
b1110111111 p
b11100000111111111 q
b0 %!
b0 .!
b0 /!
b0 0!
b0 1!
b0 9!
b0 u
b0 v
b0 x
b0 |
b0 ~
b0 !!
b1 #!
b0 $!
b1101001011000001111100000011110 s
b101110 &!
b111 '!
b11001001010110010011111001110101 (!
b1101001011000001111100000011110 )!
b10011110101100000101011011000111 -!
b0 3!
b0 4!
b0 5!
b0 7!
b111110100 ?!
b0 B!
b0 C!
b11001000 D!
b11011000 E!
b0 F!
b0 G!
b0 H!
b0 I!
b0 J!
b0 K!
b100011 S!
b100011 T!
b11111111111111111111111111111111 t
bx {
bx ;!
bx =!
0)
0*
02
01
00
0/
0.
0-
0,
0+
0:
09
08
07
06
05
04
03
0>
0=
0<
0;
0J
0I
0H
0G
0F
0E
0D
0C
0B
$end
#5
1!
1"
1)
#10
0!
0"
0)
#15
1!
1"
1)
b100100 T!
1#
b100100 S!
1*
b10000011111100011110000100101111 -!
b11001001010110010011111001110110 -!
b10000011 $
b11101101 %
b11 &
1>
1=
1:
18
17
15
14
13
12
11
1+
1F
1E
1D
1B
#20
0!
0"
0)
#25
1!
1"
1)
1@
1(
#30
0!
0"
0)
#35
1!
1"
1)
b100101 T!
b100101 S!
b10000011111100011110000100110001 -!
b11001001010110010011111001111000 -!
b111 $
b1011100 %
b10 &
0>
0:
16
05
03
10
0+
1J
1I
0F
0B
b1010000100 A
#40
0!
0"
0)
#45
1!
1"
1)
b1010000100 ?
0@
0(
b1010000100 '
#50
0!
0"
0)
#55
1!
1"
1)
b100110 T!
b100110 S!
b10000011111100011110000100110100 -!
b11001001010110010011111001111011 -!
b11100011 $
b10010100 %
07
04
13
00
1-
1,
1+
1H
1F
1B
b1000001100111100 A
#60
0!
0"
0)
#65
1!
1"
1)
b1000001100111100 ?
1@
1(
b1000001100111100 '
#70
0!
0"
0)
#75
1!
1"
1)
b100111 T!
b100111 S!
b10000011111100011110000100111000 -!
b11001001010110010011111001111111 -!
b11100110 $
b10111010 %
19
08
17
15
02
10
0J
0I
0H
0F
0D
1C
b1010011100011100 A
#80
0!
0"
0)
#85
1!
1"
1)
b1010011100011100 ?
b1010011100011100 '
#90
0!
0"
0)
#95
1!
1"
1)
b101000 T!
b101000 S!
b10000011111100011110000100111101 -!
b11001001010110010011111010000100 -!
b10111011 $
b11101101 %
b11 &
1>
1:
09
18
06
14
12
00
1/
1.
0,
1G
b0 A
#100
0!
0"
0)
#105
1!
1"
1)
b0 ?
b0 '
#110
0!
0"
0)
#115
1!
1"
1)
b101001 T!
b101001 S!
b10000011111100011110000101000011 -!
b11001001010110010011111010001010 -!
b1100101 $
01
10
0/
0.
1,
0+
1I
0G
1F
0E
1D
0C
#120
0!
0"
0)
#125
1!
1"
1)
#130
0!
0"
0)
#135
1!
1"
1)
b101010 T!
b101010 S!
b10000011111100011110000101001010 -!
b11001001010110010011111010010001 -!
b10001010 $
b11000011 %
b1 &
0=
19
08
07
05
02
11
00
1/
0-
0,
1+
1J
0I
1H
1G
0F
b1111111111000111 A
#140
0!
0"
0)
#145
1!
1"
1)
b1111111111000111 ?
b1111111111000111 '
#150
0!
0"
0)
#155
1!
1"
1)
b101011 T!
b101011 S!
b10000011111100011110000101010010 -!
b11001001010110010011111010011001 -!
b11001110 $
b1011100 %
b11 &
1=
0:
09
18
17
16
03
10
1,
0J
1I
0H
1E
0D
b10 A
#160
0!
0"
0)
#165
1!
1"
1)
b10 ?
b10 '
#170
0!
0"
0)
#175
1!
1"
1)
b101100 T!
b101100 S!
b10000011111100011110000101011011 -!
b11001001010110010011111010100010 -!
b10101000 $
b1110001 %
1:
08
07
15
01
00
1-
0,
1J
0I
1F
0E
b1 A
#180
0!
0"
0)
#185
1!
1"
1)
b1 ?
b1 '
#190
0!
0"
0)
#195
1!
1"
1)
b101101 T!
b101101 S!
b10000011111100011110000101100101 -!
b11001001010110010011111010101100 -!
b1000010 $
b110000 %
b1 &
0=
0:
04
11
0/
0-
1,
0+
0J
1I
0G
1E
1D
0B
b10010 A
#200
0!
0"
0)
#205
1!
1"
1)
b10010 ?
0@
0(
b10010 '
#210
0!
0"
0)
#215
1!
1"
1)
b101110 T!
b101110 S!
b10000011111100011110000101110000 -!
b11001001010110010011111010110111 -!
b11001000 $
b11010011 %
b11 &
1=
1:
19
05
14
13
01
1/
1+
1J
1G
0E
0D
1C
1B
b0 A
#220
0!
0"
0)
#225
1!
1"
1)
b0 ?
1@
1(
b0 '
#230
0!
0"
0)
#235
1!
1"
1)
b101111 T!
b101111 S!
b10000011111100011110000101111100 -!
b11001001010110010011111011000011 -!
b10011000 $
1.
0,
0F
1E
1D
0C
#240
0!
0"
0)
#245
1!
1"
1)
#250
0!
0"
0)
#255
1!
1"
1)
b110000 T!
b110000 S!
b10000011111100011110000110001001 -!
b11001001010110010011111011010000 -!
b1100011 $
b1111100 %
b0 &
0>
0=
0:
09
18
17
15
03
12
11
0/
0.
1-
1,
0+
1H
1F
0E
1C
0B
b11011111 A
#260
0!
0"
0)
#265
1!
1"
1)
b11011111 ?
0@
0(
b11011111 '
#270
0!
0"
0)
#275
1!
1"
1)
b110001 T!
b110001 S!
b10000011111100011110000110010111 -!
b11001001010110010011111011011110 -!
b1011101 $
b10110011 %
b1 &
1>
1:
19
08
07
04
13
01
10
1/
1.
0-
0J
0I
0H
0G
0D
0C
1B
b1111111110101010 A
#280
0!
0"
0)
#285
1!
1"
1)
b1111111110101010 ?
1@
1(
b1111111110101010 '
#290
0!
0"
0)
#295
1!
1"
1)
b110010 T!
b110010 S!
b10000011111100011110000110100110 -!
b11001001010110010011111011101101 -!
b11000001 $
b10001001 %
b10 &
0>
1=
09
17
06
05
00
0/
0.
1+
1I
1G
0F
1D
b110011101001001 A
#300
0!
0"
0)
#305
1!
1"
1)
b110011101001001 ?
b110011101001001 '
#310
0!
0"
0)
#315
1!
1"
1)
b110011 T!
b110011 S!
b10000011111100011110000110110110 -!
b11001001010110010011111011111101 -!
b10101100 $
b1110000 %
b11 &
1>
0:
07
16
15
14
03
02
10
1/
1-
0,
0I
1H
1F
0D
b1 A
#320
0!
0"
0)
#325
1!
1"
1)
b1 ?
b1 '
#330
0!
0"
0)
#335
1!
1"
1)
b110100 T!
b110100 S!
b10000011111100011110000111000111 -!
b11001001010110010011111100001110 -!
b10100011 $
b11101 %
1:
18
17
05
04
12
11
00
0/
0H
0G
0F
1D
1C
0B
b101 A
#340
0!
0"
0)
#345
1!
1"
1)
b101 ?
0@
0(
b101 '
#350
0!
0"
0)
#355
1!
1"
1)
b110101 T!
b110101 S!
b10000011111100011110000111011001 -!
b11001001010110010011111100100000 -!
b11000100 $
b1010001 %
b1 &
0=
08
07
14
02
01
10
0-
1,
1J
1H
1F
0D
0C
1B
b1110011 A
#360
0!
0"
0)
#365
1!
1"
1)
b1110011 ?
1@
1(
b1110011 '
#370
0!
0"
0)
#375
1!
1"
1)
b110110 T!
b110110 S!
b10000011111100011110000111101100 -!
b11001001010110010011111100110011 -!
b11100100 $
b1110111 %
19
18
15
1-
1I
0H
1G
1D
b1101101 A
#380
0!
0"
0)
#385
1!
1"
1)
b1101101 ?
b1101101 '
#390
0!
0"
0)
#395
1!
1"
1)
b110111 T!
b110111 S!
b10000011111100011110001000000000 -!
b11001001010110010011111101000111 -!
b100000 $
b10011010 %
b11 &
1=
0:
08
17
05
04
13
00
0,
0+
0J
1E
0D
1C
0B
b0 A
#400
0!
0"
0)
#405
1!
1"
1)
b0 ?
0@
0(
b0 '
#410
0!
0"
0)
#415
1!
1"
1)
b111000 T!
b111000 S!
b10000011111100011110001000010101 -!
b11001001010110010011111101011100 -!
b10011001 $
b11011111 %
b10 &
0>
1:
18
14
12
1/
1.
0-
1+
0I
1D
0C
1B
b1000010101000111 A
#420
0!
0"
0)
#425
1!
1"
1)
b1000010101000111 ?
1@
1(
b1000010101000111 '
#430
0!
0"
0)
#435
1!
1"
1)
b111001 T!
b111001 S!
b10000011111100011110001000101011 -!
b11001001010110010011111101110010 -!
b1111001 $
b101 %
b0 &
0=
09
07
06
04
03
1-
1,
0+
1I
1H
0B
b1111110 A
#440
0!
0"
0)
#445
1!
1"
1)
b1111110 ?
0@
0(
b1111110 '
#450
0!
0"
0)
#455
1!
1"
1)
b111010 T!
b111010 S!
b10000011111100011110001001000010 -!
b11001001010110010011111110001001 -!
b111 $
b1110100 %
b1 &
1>
0:
16
15
14
11
10
0/
0.
0-
0,
1J
0H
b1111111110010011 A
#460
0!
0"
0)
#465
1!
1"
1)
b1111111110010011 ?
b1111111110010011 '
#470
0!
0"
0)
#475
1!
1"
1)
b111011 T!
b111011 S!
b10000011111100011110001001011010 -!
b11001001010110010011111110100001 -!
b11111101 $
b10010101 %
b0 &
0>
1:
05
04
13
01
1/
1.
1-
1,
1+
0J
0G
0E
0D
1C
1B
b110010010 A
#480
0!
0"
0)
#485
1!
1"
1)
b110010010 ?
1@
1(
b110010010 '
#490
0!
0"
0)
#495
1!
1"
1)
b111100 T!
b111100 S!
b10000011111100011110001001110011 -!
b11001001010110010011111110111010 -!
b1111011 $
b10001001 %
b11 &
1>
1=
08
17
06
11
00
0+
0I
1H
0F
0C
b0 A
#500
0!
0"
0)
#505
1!
1"
1)
b0 ?
b0 '
#510
0!
0"
0)
#515
1!
1"
1)
b111101 T!
b111101 S!
b10000011111100011110001010001101 -!
b11001001010110010011111111010100 -!
b1111110 $
b1100100 %
b10 &
0>
0:
18
07
15
14
03
02
10
1I
0H
1E
1D
1C
0B
b11000100111000 A
#520
0!
0"
0)
#525
1!
1"
1)
b11000100111000 ?
0@
0(
b11000100111000 '
#530
0!
0"
0)
#535
1!
1"
1)
b111110 T!
b111110 S!
b10000011111100011110001010101000 -!
b11001001010110010011111111101111 -!
b11000010 $
b1000110 %
b11 &
1>
19
05
00
0/
0.
0-
1+
0I
1G
0E
0D
0C
1B
b10 A
#540
0!
0"
0)
#545
1!
1"
1)
b10 ?
1@
1(
b10 '
#550
0!
0"
0)
#555
1!
1"
1)
b111111 T!
b111111 S!
b10000011111100011110001011000100 -!
b11001001010110010100000000001011 -!
b1110110 $
b11110000 %
b0 &
0>
0=
09
08
16
15
13
10
1.
1-
0+
1I
1H
0G
1E
1D
b101100110 A
#560
0!
0"
0)
#565
1!
1"
1)
b101100110 ?
b101100110 '
#570
0!
0"
0)
#575
1!
1"
1)
b1000000 T!
b1000000 S!
b10000011111100011110001011100001 -!
b11001001010110010100000000101000 -!
b110001 $
b100 %
18
06
05
04
03
12
01
00
0,
1J
0I
1F
0D
0B
b110101 A
#580
0!
0"
0)
#585
1!
1"
1)
b110101 ?
0@
0(
b110101 '
#590
0!
0"
0)
#595
1!
1"
1)
b1000001 T!
b1000001 S!
b10000011111100011110001011111111 -!
b11001001010110010100000001000110 -!
b10000000 $
b11001111 %
b11 &
1>
1=
1:
19
17
14
13
02
0.
0-
1+
1I
1G
0F
0E
1D
1B
b0 A
#600
0!
0"
0)
#605
1!
1"
1)
b0 ?
1@
1(
b0 '
#610
0!
0"
0)
#615
1!
1"
1)
b1000010 T!
b1000010 S!
b10000011111100011110001100011110 -!
b11001001010110010100000001100101 -!
b10110101 $
b1100100 %
b1 &
0=
0:
09
07
15
03
12
10
1.
1-
0I
0H
1F
0D
b1010001 A
#620
0!
0"
0)
#625
1!
1"
1)
b1010001 ?
b1010001 '
#630
0!
0"
0)
#635
1!
1"
1)
b1000011 T!
b1000011 S!
b10000011111100011110001100111110 -!
b11001001010110010100000010000101 -!
b10101111 $
b1000110 %
19
05
11
1/
0.
1H
0G
1E
1D
1C
0B
b1101001 A
#640
0!
0"
0)
#645
1!
1"
1)
b1101001 ?
0@
0(
b1101001 '
#650
0!
0"
0)
#655
1!
1"
1)
b1000100 T!
b1000100 S!
b10000011111100011110001101011111 -!
b11001001010110010100000010100110 -!
b10100011 $
b10101101 %
b0 &
0>
1:
09
17
15
04
13
00
0/
0J
0H
0E
0C
1B
b101010000 A
#660
0!
0"
0)
#665
1!
1"
1)
b101010000 ?
1@
1(
b101010000 '
#670
0!
0"
0)
#675
1!
1"
1)
b1000101 T!
b1000101 S!
b10000011111100011110001110000001 -!
b11001001010110010100000011001000 -!
b10011110 $
b11001110 %
b11 &
1>
1=
0:
19
05
14
02
10
1/
1.
0-
1H
1G
0F
1E
b0 A
#680
0!
0"
0)
#685
1!
1"
1)
b0 ?
b0 '
#690
0!
0"
0)
#695
1!
1"
1)
b1000110 T!
b1000110 S!
b10000011111100011110001110100100 -!
b11001001010110010100000011101011 -!
b11011 $
b11000011 %
1:
08
07
12
00
0+
1I
1F
0E
1C
0B
#700
0!
0"
0)
#705
1!
1"
1)
0@
0(
#710
0!
0"
0)
#715
1!
1"
1)
b1000111 T!
b1000111 S!
b10000011111100011110001111001000 -!
b11001001010110010100000100001111 -!
b1000110 $
b1101010 %
b10 &
0>
0:
17
15
03
02
10
0/
0.
1,
0I
0H
0G
1E
0D
b1110011111100 A
#720
0!
0"
0)
#725
1!
1"
1)
b1110011111100 ?
b1110011111100 '
#730
0!
0"
0)
#735
1!
1"
1)
b1001000 T!
b1001000 S!
b10000011111100011110001111101101 -!
b11001001010110010100000100110100 -!
b101011 $
b10110001 %
b0 &
0=
1:
09
07
16
04
13
12
00
1/
1-
0,
1H
1G
0E
1D
b11011100 A
#740
0!
0"
0)
#745
1!
1"
1)
b11011100 ?
b11011100 '
#750
0!
0"
0)
#755
1!
1"
1)
b1001001 T!
b1001001 S!
b10000011111100011110010000010011 -!
b11001001010110010100000101011010 -!
b1000010 $
b1001010 %
b10 &
1=
0:
19
17
06
05
14
03
02
0/
0-
1,
0F
0D
b1001100010100 A
#760
0!
0"
0)
#765
1!
1"
1)
b1001100010100 ?
b1001100010100 '
#770
0!
0"
0)
#775
1!
1"
1)
b1001010 T!
b1001010 S!
b10000011111100011110010000111010 -!
b11001001010110010100000110000001 -!
b10001110 $
b11000001 %
b1 &
1>
0=
1:
09
07
13
10
1/
0,
1+
1J
1I
1D
0C
1B
b1111111111001101 A
#780
0!
0"
0)
#785
1!
1"
1)
b1111111111001101 ?
1@
1(
b1111111111001101 '
#790
0!
0"
0)
#795
1!
1"
1)
b1001011 T!
b1001011 S!
b10000011111100011110010001100010 -!
b11001001010110010100000110101001 -!
b100111 $
b101110 %
b11 &
1=
0:
19
18
17
15
04
03
12
0/
1-
0+
0I
0G
1F
0B
b0 A
#800
0!
0"
0)
#805
1!
1"
1)
b0 ?
0@
0(
b0 '
#810
0!
0"
0)
#815
1!
1"
1)
b1001100 T!
b1001100 S!
b10000011111100011110010010001011 -!
b11001001010110010100000111010010 -!
b110010 $
b11000011 %
1:
08
07
05
14
13
02
00
1.
1E
1C
#820
0!
0"
0)
#825
1!
1"
1)
#830
0!
0"
0)
#835
1!
1"
1)
b1001101 T!
b1001101 S!
b10000011111100011110010010110101 -!
b11001001010110010100000111111100 -!
b1010101 $
b111101 %
b10 &
0>
09
18
17
16
15
04
03
12
01
10
0-
1,
0J
1I
0H
0E
0D
b1010001000001 A
#840
0!
0"
0)
#845
1!
1"
1)
b1010001000001 ?
b1010001000001 '
#850
0!
0"
0)
#855
1!
1"
1)
b1001110 T!
b1001110 S!
b10000011111100011110010011100000 -!
b11001001010110010100001000100111 -!
b10111101 $
b110001 %
08
07
1/
1-
0,
1+
1H
1G
0F
1E
1D
b10010000101101 A
#860
0!
0"
0)
#865
1!
1"
1)
b10010000101101 ?
b10010000101101 '
#870
0!
0"
0)
#875
1!
1"
1)
b1001111 T!
b1001111 S!
b10000011111100011110010100001100 -!
b11001001010110010100001001010011 -!
b1000010 $
b1101001 %
b1 &
1>
0=
17
06
14
02
11
00
0/
0.
0-
1,
0+
1J
0H
0D
b1111111111011001 A
#880
0!
0"
0)
#885
1!
1"
1)
b1111111111011001 ?
b1111111111011001 '
#890
0!
0"
0)
#895
1!
1"
1)
b1010000 T!
b1010000 S!
b10000011111100011110010100111001 -!
b11001001010110010100001010000000 -!
b1110101 $
b10 %
0:
19
07
05
04
12
01
10
1.
1-
1H
0G
1F
1D
0C
b1110011 A
#900
0!
0"
0)
#905
1!
1"
1)
b1110011 ?
b1110011 '
#910
0!
0"
0)
#915
1!
1"
1)
b1010001 T!
b1010001 S!
b10000011111100011110010101100111 -!
b11001001010110010100001010101110 -!
b101 $
b10101000 %
b11 &
1=
09
17
15
13
0.
0-
0,
0I
1G
0F
0D
1C
b0 A
#920
0!
0"
0)
#925
1!
1"
1)
b0 ?
b0 '
#930
0!
0"
0)
#935
1!
1"
1)
b1010010 T!
b1010010 S!
b10000011111100011110010110010110 -!
b11001001010110010100001011011101 -!
b1110101 $
b10010001 %
1:
07
16
05
1.
1-
1,
0J
1I
0G
0E
0C
1B
#940
0!
0"
0)
#945
1!
1"
1)
1@
1(
#950
0!
0"
0)
#955
1!
1"
1)
b1010011 T!
b1010011 S!
b10000011111100011110010111000110 -!
b11001001010110010100001100001101 -!
b11100000 $
b11111010 %
b10 &
0>
0:
19
17
15
14
02
00
0.
1+
0H
1G
1F
1D
1C
b1101101011000000 A
#960
0!
0"
0)
#965
1!
1"
1)
b1101101011000000 ?
b1101101011000000 '
#970
0!
0"
0)
#975
1!
1"
1)
b1010100 T!
b1010100 S!
b10000011111100011110010111110111 -!
b11001001010110010100001100111110 -!
b1111111 $
b1011111 %
b0 &
0=
1:
18
05
03
12
11
10
1/
1.
0+
1H
0B
b11011110 A
#980
0!
0"
0)
#985
1!
1"
1)
b11011110 ?
0@
0(
b11011110 '
#990
0!
0"
0)
