ALU_SIMPLE/dump.vcd
$date
	Sat Apr 12 22:31:02 2025
$end
$version
	QuestaSim Version 10.7c
$end
$timescale
	1ns
$end

$scope module alu_tb $end

$scope module tif $end
$var reg 1 ! clk $end
$var reg 1 " rstn $end
$var reg 8 # a [7:0] $end
$var reg 8 $ b [7:0] $end
$var reg 4 % op_sel [3:0] $end
$var reg 16 & alu_out [15:0] $end
$var reg 1 ' carry_out $end
$upscope $end
$upscope $end

$scope begin uvm_pkg $end
$var parameter 32 ( UVM_HDL_MAX_WIDTH $end
$var parameter 32 ) UVM_STREAMBITS $end
$var parameter 32 * UVM_RADIX $end
$var parameter 32 + UVM_MACRO_NUMFLAGS $end
$var parameter 32 , UVM_DEFAULT $end
$var parameter 32 - UVM_ALL_ON $end
$var parameter 32 . UVM_FLAGS_ON $end
$var parameter 32 / UVM_FLAGS_OFF $end
$var parameter 32 0 UVM_COPY $end
$var parameter 32 1 UVM_NOCOPY $end
$var parameter 32 2 UVM_COMPARE $end
$var parameter 32 3 UVM_NOCOMPARE $end
$var parameter 32 4 UVM_PRINT $end
$var parameter 32 5 UVM_NOPRINT $end
$var parameter 32 6 UVM_RECORD $end
$var parameter 32 7 UVM_NORECORD $end
$var parameter 32 8 UVM_PACK $end
$var parameter 32 9 UVM_NOPACK $end
$var parameter 32 : UVM_PHYSICAL $end
$var parameter 32 ; UVM_ABSTRACT $end
$var parameter 32 < UVM_READONLY $end
$var parameter 32 = UVM_NODEFPRINT $end
$var parameter 32 > UVM_MACRO_EXTRAS $end
$var parameter 32 ? UVM_FLAGS $end
$var parameter 32 @ UVM_UNPACK $end
$var parameter 32 A UVM_CHECK_FIELDS $end
$var parameter 32 B UVM_END_DATA_EXTRA $end
$var parameter 32 C UVM_START_FUNCS $end
$var parameter 32 D UVM_SET $end
$var parameter 32 E UVM_SETINT $end
$var parameter 32 F UVM_SETOBJ $end
$var parameter 32 G UVM_SETSTR $end
$var parameter 32 H UVM_END_FUNCS $end
$var parameter 32 I UVM_STR_CRC_POLYNOMIAL $end
$var parameter 32 J UVM_STDOUT $end
$var parameter 32 K UVM_LINE_WIDTH $end
$var parameter 32 L UVM_NUM_LINES $end
$var parameter 32 M UVM_SMALL_STRING $end
$var parameter 32 N UVM_LARGE_STRING $end
$var reg 1 O uvm_start_uvm_declarations $end
$var integer 32 P uvm_global_random_seed $end
$var integer 32 Q UVM_UNBOUNDED_CONNECTIONS $end

$scope function uvm_hdl_check_path $end
$var integer 32 R uvm_hdl_check_path $end
$upscope $end

$scope function uvm_hdl_deposit $end
$var integer 32 S uvm_hdl_deposit $end
$var reg 1024 T value [1023:0] $end
$upscope $end

$scope function uvm_hdl_force $end
$var integer 32 U uvm_hdl_force $end
$var reg 1024 V value [1023:0] $end
$upscope $end

$scope task uvm_hdl_force_time $end
$var reg 1024 W value [1023:0] $end
$var time 64 X force_time $end
$upscope $end

$scope function uvm_hdl_release_and_read $end
$var integer 32 Y uvm_hdl_release_and_read $end
$var reg 1024 Z value [1023:0] $end
$upscope $end

$scope function uvm_hdl_release $end
$var integer 32 [ uvm_hdl_release $end
$upscope $end

$scope function uvm_hdl_read $end
$var integer 32 \ uvm_hdl_read $end
$var reg 1024 ] value [1023:0] $end
$upscope $end

$scope function uvm_dpi_regexec $end
$var integer 32 ^ uvm_dpi_regexec $end
$upscope $end

$scope function uvm_re_match $end
$var integer 32 _ uvm_re_match $end
$upscope $end

$scope function uvm_radix_to_string $end
$var integer 32 ` radix $end
$upscope $end

$scope function uvm_instance_scope $end
$var reg 8 a c [7:0] $end
$var integer 32 b pos $end
$upscope $end

$scope function uvm_oneway_hash $end
$var integer 32 c uvm_oneway_hash $end
$var integer 32 d seed $end
$var reg 1 e msb $end
$var reg 8 f current_byte [7:0] $end
$var reg 32 g crc1 [31:0] $end
$upscope $end

$scope function uvm_create_random_seed $end
$var integer 32 h uvm_create_random_seed $end
$upscope $end

$scope function uvm_leaf_scope $end
$var reg 8 i scope_separator [7:0] $end
$var reg 8 j bracket_match [7:0] $end
$var integer 32 k pos $end
$var integer 32 l bmatches $end
$upscope $end

$scope function uvm_vector_to_string $end
$var reg 4096 m value [4095:0] $end
$var integer 32 n size $end
$var integer 32 o radix $end
$upscope $end

$scope function uvm_get_array_index_int $end
$var integer 32 p uvm_get_array_index_int $end
$var reg 1 q is_wildcard $end
$var integer 32 r i $end
$upscope $end

$scope function uvm_get_array_index_string $end
$var reg 1 s is_wildcard $end
$var integer 32 t i $end
$upscope $end

$scope function uvm_is_array $end
$var reg 1 u uvm_is_array $end
$upscope $end

$scope function set_global_timeout $end
$var time 64 v timeout $end
$var reg 1 w overridable $end
$upscope $end

$scope function set_global_stop_timeout $end
$var time 64 x timeout $end
$upscope $end

$scope function uvm_report_enabled $end
$var reg 1 y uvm_report_enabled $end
$var integer 32 z verbosity $end
$var reg 2 { severity [1:0] $end
$upscope $end

$scope function uvm_report $end
$var reg 2 | severity [1:0] $end
$var integer 32 } verbosity $end
$var integer 32 ~ line $end
$upscope $end

$scope function uvm_report_info $end
$var integer 32 !! verbosity $end
$var integer 32 "! line $end
$upscope $end

$scope function uvm_report_warning $end
$var integer 32 #! verbosity $end
$var integer 32 $! line $end
$upscope $end

$scope function uvm_report_error $end
$var integer 32 %! verbosity $end
$var integer 32 &! line $end
$upscope $end

$scope function uvm_report_fatal $end
$var integer 32 '! verbosity $end
$var integer 32 (! line $end
$upscope $end

$scope function uvm_string_to_severity $end
$var reg 1 )! uvm_string_to_severity $end
$var reg 2 *! sev [1:0] $end
$upscope $end

$scope function set_config_int $end
$var reg 4096 +! value [4095:0] $end
$upscope $end

$scope function set_config_object $end
$var reg 1 ,! clone $end
$upscope $end

$scope function uvm_is_match $end
$var reg 1 -! uvm_is_match $end
$upscope $end

$scope function uvm_string_to_bits $end
$var reg 115200 .! uvm_string_to_bits [115199:0] $end
$upscope $end

$scope function uvm_bits_to_string $end
$var reg 115200 /! str [115199:0] $end
$upscope $end

$scope task uvm_wait_for_nba_region $end
$var integer 32 0! nba $end
$var integer 32 1! next_nba $end
$upscope $end
$upscope $end

$scope module uvm_root $end
$upscope $end

$scope module alu_tb $end
$upscope $end

$scope begin uvm_pkg $end

$scope function uvm_hdl_check_path $end
$upscope $end

$scope function uvm_hdl_deposit $end
$upscope $end

$scope function uvm_hdl_force $end
$upscope $end

$scope task uvm_hdl_force_time $end
$upscope $end

$scope function uvm_hdl_release_and_read $end
$upscope $end

$scope function uvm_hdl_release $end
$upscope $end

$scope function uvm_hdl_read $end
$upscope $end

$scope function uvm_dpi_get_next_arg_c $end
$upscope $end

$scope function uvm_dpi_get_tool_name_c $end
$upscope $end

$scope function uvm_dpi_get_tool_version_c $end
$upscope $end

$scope function uvm_dpi_get_next_arg $end
$upscope $end

$scope function uvm_dpi_get_tool_name $end
$upscope $end

$scope function uvm_dpi_get_tool_version $end
$upscope $end

$scope function uvm_dpi_regcomp $end
$upscope $end

$scope function uvm_dpi_regexec $end
$upscope $end

$scope function uvm_dpi_regfree $end
$upscope $end

$scope function uvm_re_match $end
$upscope $end

$scope function uvm_dump_re_cache $end
$upscope $end

$scope function uvm_glob_to_re $end
$upscope $end

$scope function uvm_revision_string $end
$upscope $end

$scope function uvm_radix_to_string $end
$upscope $end

$scope function uvm_instance_scope $end
$upscope $end

$scope function uvm_oneway_hash $end
$upscope $end

$scope function uvm_create_random_seed $end
$upscope $end

$scope function uvm_object_value_str $end
$upscope $end

$scope function uvm_leaf_scope $end
$upscope $end

$scope function uvm_vector_to_string $end
$upscope $end

$scope function uvm_get_array_index_int $end
$upscope $end

$scope function uvm_get_array_index_string $end
$upscope $end

$scope function uvm_is_array $end
$upscope $end

$scope function uvm_has_wildcard $end
$upscope $end

$scope task run_test $end
$upscope $end

$scope function global_stop_request $end
$upscope $end

$scope function set_global_timeout $end
$upscope $end

$scope function set_global_stop_timeout $end
$upscope $end

$scope function uvm_report_enabled $end
$upscope $end

$scope function uvm_report $end
$upscope $end

$scope function uvm_report_info $end
$upscope $end

$scope function uvm_report_warning $end
$upscope $end

$scope function uvm_report_error $end
$upscope $end

$scope function uvm_report_fatal $end
$upscope $end

$scope function uvm_string_to_severity $end
$upscope $end

$scope function uvm_string_to_action $end
$upscope $end

$scope function set_config_int $end
$upscope $end

$scope function set_config_object $end
$upscope $end

$scope function set_config_string $end
$upscope $end

$scope function uvm_is_match $end
$upscope $end

$scope function uvm_string_to_bits $end
$upscope $end

$scope function uvm_bits_to_string $end
$upscope $end

$scope task uvm_wait_for_nba_region $end
$upscope $end

$scope function uvm_split_string $end
$upscope $end

$scope function uvm_hdl_concat2string $end
$upscope $end
$upscope $end

$scope begin alu_pkg $end
$upscope $end

$scope begin std $end
$upscope $end

$scope begin questa_uvm_pkg $end
$upscope $end
$enddefinitions $end
#0
$dumpvars
0s
0u
0)!
b0 *!
bx .!
bx /!
bx T
bx V
bx W
bx Z
bx ]
1O
0e
b1101101 f
b10101000101110010000011110100000 g
bx m
0q
0w
0y
b0 {
b0 |
bx +!
0,!
0-!
0!
0"
b0 #
b0 $
b0 %
b0 &
0'
b10000000000 (
b1000000000000 )
b1111000000000000000000000000 *
b10001 +
b10101010101 ,
b101010101 -
b101010101 .
b0 /
b1 0
b10 1
b100 2
b1000 3
b10000 4
b100000 5
b1000000 6
b10000000 7
b100000000 8
b1000000000 9
b10000000000000 :
b100000000000000 ;
b1000000000000000 <
b10000000000000000 =
b100000000000000000 >
b100000000000000001 ?
b100000000000000010 @
b100000000000000011 A
b100000000000000100 B
b100000000000000101 C
b100000000000000110 D
b100000000000000110 E
b100000000000000111 F
b100000000000001000 G
b100000000000001000 H
b100110000010001110110110110 I
b1 J
b1111000 K
b1111000 L
b1110111111 M
b11100000111111111 N
b0 `
b0 i
b0 j
b0 k
b0 l
b0 t
b0 R
b0 S
b0 U
b0 Y
b0 [
b0 \
b1 ^
b0 _
b1101001011000001111100000011110 P
b101110 a
b111 b
b11001001010110010011111001110101 c
b1101001011000001111100000011110 d
b10011110101100000101011011000111 h
b0 n
b0 o
b0 p
b0 r
b111110100 z
b0 }
b0 ~
b11001000 !!
b11011000 "!
b0 #!
b0 $!
b0 %!
b0 &!
b0 '!
b0 (!
b100011 0!
b100011 1!
b11111111111111111111111111111111 Q
bx X
bx v
bx x
$end
#5
1!
#10
0!
#15
1!
b100100 1!
1"
b100100 0!
b10000011111100011110000100101111 h
b11001001010110010011111001110110 h
b10000011 #
b11101101 $
b11 %
#20
0!
#25
1!
1'
#30
0!
#35
1!
b100101 1!
b100101 0!
b10000011111100011110000100110001 h
b11001001010110010011111001111000 h
b111 #
b1011100 $
b10 %
#40
0!
#45
1!
0'
b1010000100 &
#50
0!
#55
1!
b100110 1!
b100110 0!
b10000011111100011110000100110100 h
b11001001010110010011111001111011 h
b11100011 #
b10010100 $
#60
0!
#65
1!
1'
b1000001100111100 &
#70
0!
#75
1!
b100111 1!
b100111 0!
b10000011111100011110000100111000 h
b11001001010110010011111001111111 h
b11100110 #
b10111010 $
#80
0!
#85
1!
b1010011100011100 &
#90
0!
#95
1!
b101000 1!
b101000 0!
b10000011111100011110000100111101 h
b11001001010110010011111010000100 h
b10111011 #
b11101101 $
b11 %
#100
0!
#105
1!
b0 &
#110
0!
#115
1!
b101001 1!
b101001 0!
b10000011111100011110000101000011 h
b11001001010110010011111010001010 h
b1100101 #
#120
0!
#125
1!
#130
0!
#135
1!
b101010 1!
b101010 0!
b10000011111100011110000101001010 h
b11001001010110010011111010010001 h
b10001010 #
b11000011 $
b1 %
#140
0!
#145
1!
b1111111111000111 &
#150
0!
#155
1!
b101011 1!
b101011 0!
b10000011111100011110000101010010 h
b11001001010110010011111010011001 h
b11001110 #
b1011100 $
b11 %
#160
0!
#165
1!
b10 &
#170
0!
#175
1!
b101100 1!
b101100 0!
b10000011111100011110000101011011 h
b11001001010110010011111010100010 h
b10101000 #
b1110001 $
#180
0!
#185
1!
b1 &
#190
0!
#195
1!
b101101 1!
b101101 0!
b10000011111100011110000101100101 h
b11001001010110010011111010101100 h
b1000010 #
b110000 $
b1 %
#200
0!
#205
1!
0'
b10010 &
#210
0!
#215
1!
b101110 1!
b101110 0!
b10000011111100011110000101110000 h
b11001001010110010011111010110111 h
b11001000 #
b11010011 $
b11 %
#220
0!
#225
1!
1'
b0 &
#230
0!
#235
1!
b101111 1!
b101111 0!
b10000011111100011110000101111100 h
b11001001010110010011111011000011 h
b10011000 #
#240
0!
#245
1!
#250
0!
#255
1!
b110000 1!
b110000 0!
b10000011111100011110000110001001 h
b11001001010110010011111011010000 h
b1100011 #
b1111100 $
b0 %
#260
0!
#265
1!
0'
b11011111 &
#270
0!
#275
1!
b110001 1!
b110001 0!
b10000011111100011110000110010111 h
b11001001010110010011111011011110 h
b1011101 #
b10110011 $
b1 %
#280
0!
#285
1!
1'
b1111111110101010 &
#290
0!
#295
1!
b110010 1!
b110010 0!
b10000011111100011110000110100110 h
b11001001010110010011111011101101 h
b11000001 #
b10001001 $
b10 %
#300
0!
#305
1!
b110011101001001 &
#310
0!
#315
1!
b110011 1!
b110011 0!
b10000011111100011110000110110110 h
b11001001010110010011111011111101 h
b10101100 #
b1110000 $
b11 %
#320
0!
#325
1!
b1 &
#330
0!
#335
1!
b110100 1!
b110100 0!
b10000011111100011110000111000111 h
b11001001010110010011111100001110 h
b10100011 #
b11101 $
#340
0!
#345
1!
0'
b101 &
#350
0!
#355
1!
b110101 1!
b110101 0!
b10000011111100011110000111011001 h
b11001001010110010011111100100000 h
b11000100 #
b1010001 $
b1 %
#360
0!
#365
1!
1'
b1110011 &
#370
0!
#375
1!
b110110 1!
b110110 0!
b10000011111100011110000111101100 h
b11001001010110010011111100110011 h
b11100100 #
b1110111 $
#380
0!
#385
1!
b1101101 &
#390
0!
#395
1!
b110111 1!
b110111 0!
b10000011111100011110001000000000 h
b11001001010110010011111101000111 h
b100000 #
b10011010 $
b11 %
#400
0!
#405
1!
0'
b0 &
#410
0!
#415
1!
b111000 1!
b111000 0!
b10000011111100011110001000010101 h
b11001001010110010011111101011100 h
b10011001 #
b11011111 $
b10 %
#420
0!
#425
1!
1'
b1000010101000111 &
#430
0!
#435
1!
b111001 1!
b111001 0!
b10000011111100011110001000101011 h
b11001001010110010011111101110010 h
b1111001 #
b101 $
b0 %
#440
0!
#445
1!
0'
b1111110 &
#450
0!
#455
1!
b111010 1!
b111010 0!
b10000011111100011110001001000010 h
b11001001010110010011111110001001 h
b111 #
b1110100 $
b1 %
#460
0!
#465
1!
b1111111110010011 &
#470
0!
#475
1!
b111011 1!
b111011 0!
b10000011111100011110001001011010 h
b11001001010110010011111110100001 h
b11111101 #
b10010101 $
b0 %
#480
0!
#485
1!
1'
b110010010 &
#490
0!
#495
1!
b111100 1!
b111100 0!
b10000011111100011110001001110011 h
b11001001010110010011111110111010 h
b1111011 #
b10001001 $
b11 %
#500
0!
#505
1!
b0 &
#510
0!
#515
1!
b111101 1!
b111101 0!
b10000011111100011110001010001101 h
b11001001010110010011111111010100 h
b1111110 #
b1100100 $
b10 %
#520
0!
#525
1!
0'
b11000100111000 &
#530
0!
#535
1!
b111110 1!
b111110 0!
b10000011111100011110001010101000 h
b11001001010110010011111111101111 h
b11000010 #
b1000110 $
b11 %
#540
0!
#545
1!
1'
b10 &
#550
0!
#555
1!
b111111 1!
b111111 0!
b10000011111100011110001011000100 h
b11001001010110010100000000001011 h
b1110110 #
b11110000 $
b0 %
#560
0!
#565
1!
b101100110 &
#570
0!
#575
1!
b1000000 1!
b1000000 0!
b10000011111100011110001011100001 h
b11001001010110010100000000101000 h
b110001 #
b100 $
#580
0!
#585
1!
0'
b110101 &
#590
0!
#595
1!
b1000001 1!
b1000001 0!
b10000011111100011110001011111111 h
b11001001010110010100000001000110 h
b10000000 #
b11001111 $
b11 %
#600
0!
#605
1!
1'
b0 &
#610
0!
#615
1!
b1000010 1!
b1000010 0!
b10000011111100011110001100011110 h
b11001001010110010100000001100101 h
b10110101 #
b1100100 $
b1 %
#620
0!
#625
1!
b1010001 &
#630
0!
#635
1!
b1000011 1!
b1000011 0!
b10000011111100011110001100111110 h
b11001001010110010100000010000101 h
b10101111 #
b1000110 $
#640
0!
#645
1!
0'
b1101001 &
#650
0!
#655
1!
b1000100 1!
b1000100 0!
b10000011111100011110001101011111 h
b11001001010110010100000010100110 h
b10100011 #
b10101101 $
b0 %
#660
0!
#665
1!
1'
b101010000 &
#670
0!
#675
1!
b1000101 1!
b1000101 0!
b10000011111100011110001110000001 h
b11001001010110010100000011001000 h
b10011110 #
b11001110 $
b11 %
#680
0!
#685
1!
b0 &
#690
0!
#695
1!
b1000110 1!
b1000110 0!
b10000011111100011110001110100100 h
b11001001010110010100000011101011 h
b11011 #
b11000011 $
#700
0!
#705
1!
0'
#710
0!
#715
1!
b1000111 1!
b1000111 0!
b10000011111100011110001111001000 h
b11001001010110010100000100001111 h
b1000110 #
b1101010 $
b10 %
#720
0!
#725
1!
b1110011111100 &
#730
0!
#735
1!
b1001000 1!
b1001000 0!
b10000011111100011110001111101101 h
b11001001010110010100000100110100 h
b101011 #
b10110001 $
b0 %
#740
0!
#745
1!
b11011100 &
#750
0!
#755
1!
b1001001 1!
b1001001 0!
b10000011111100011110010000010011 h
b11001001010110010100000101011010 h
b1000010 #
b1001010 $
b10 %
#760
0!
#765
1!
b1001100010100 &
#770
0!
#775
1!
b1001010 1!
b1001010 0!
b10000011111100011110010000111010 h
b11001001010110010100000110000001 h
b10001110 #
b11000001 $
b1 %
#780
0!
#785
1!
1'
b1111111111001101 &
#790
0!
#795
1!
b1001011 1!
b1001011 0!
b10000011111100011110010001100010 h
b11001001010110010100000110101001 h
b100111 #
b101110 $
b11 %
#800
0!
#805
1!
0'
b0 &
#810
0!
#815
1!
b1001100 1!
b1001100 0!
b10000011111100011110010010001011 h
b11001001010110010100000111010010 h
b110010 #
b11000011 $
#820
0!
#825
1!
#830
0!
#835
1!
b1001101 1!
b1001101 0!
b10000011111100011110010010110101 h
b11001001010110010100000111111100 h
b1010101 #
b111101 $
b10 %
#840
0!
#845
1!
b1010001000001 &
#850
0!
#855
1!
b1001110 1!
b1001110 0!
b10000011111100011110010011100000 h
b11001001010110010100001000100111 h
b10111101 #
b110001 $
#860
0!
#865
1!
b10010000101101 &
#870
0!
#875
1!
b1001111 1!
b1001111 0!
b10000011111100011110010100001100 h
b11001001010110010100001001010011 h
b1000010 #
b1101001 $
b1 %
#880
0!
#885
1!
b1111111111011001 &
#890
0!
#895
1!
b1010000 1!
b1010000 0!
b10000011111100011110010100111001 h
b11001001010110010100001010000000 h
b1110101 #
b10 $
#900
0!
#905
1!
b1110011 &
#910
0!
#915
1!
b1010001 1!
b1010001 0!
b10000011111100011110010101100111 h
b11001001010110010100001010101110 h
b101 #
b10101000 $
b11 %
#920
0!
#925
1!
b0 &
#930
0!
#935
1!
b1010010 1!
b1010010 0!
b10000011111100011110010110010110 h
b11001001010110010100001011011101 h
b1110101 #
b10010001 $
#940
0!
#945
1!
1'
#950
0!
#955
1!
b1010011 1!
b1010011 0!
b10000011111100011110010111000110 h
b11001001010110010100001100001101 h
b11100000 #
b11111010 $
b10 %
#960
0!
#965
1!
b1101101011000000 &
#970
0!
#975
1!
b1010100 1!
b1010100 0!
b10000011111100011110010111110111 h
b11001001010110010100001100111110 h
b1111111 #
b1011111 $
b0 %
#980
0!
#985
1!
0'
b11011110 &
#990
0!
#995
1!
b1010101 1!
b1010101 0!
b1110000 #
b10011101 $
b1 %
#1000
0!
#1005
1!
1'
b1111111111010011 &
#1010
0!
#1015
1!
b1010110 1!
b1010111 1!
b1011000 1!
b1010110 0!
b1010111 0!
b1011000 0!
b1011001 1!
b1011010 1!
b1011001 0!
b1011010 0!
b10011110101100000101011011011001 h
b11001101001110100010000011011110 h
b11010101110111100010100100101010 h
b10100011111111110111011011000010 h
b10101010101111011110010001011 h
b101011001011111001100101001 h
b11010000100000100010000011000111 h
b1001100001010010101100010101110 h
b11111001011101000110000011001001 h
b10100110000100010000001000110111 h
b1100101100001000100010101111101 h
b10000001010100001111001010001101 h
b10110110110100100100101001101001 h
b11101100000001101010010010111100 h
b11001100000110011101010101010 h
b1100101110010100000011100111111 h
b11011001000000010011011000100100 h
b11101100010001100010100101100100 h
b111000101000011100110011010010 h
b10110011110000000100000100101010 h
b11000001111011101111000100110010 h
b10101111010011111001000011110111 h
b10100010000010011100111101111010 h
b111000011000110011100110101111 h
b11011100000111001000010000111110 h
b10011110101100000101011011101100 h
b11001101001110100010000011110001 h
b11010101110111100010100100111101 h
b10100011111111110111011011010101 h
b10101010101111011110010011110 h
b101011001011111001100111100 h
b11010000100000100010000011011010 h
b1001100001010010101100011000001 h
b11111001011101000110000011011100 h
b10100110000100010000001001001010 h
b1100101100001000100010110010000 h
b10000001010100001111001010100000 h
b10110110110100100100101001111100 h
b11101100000001101010010011001111 h
b11001100000110011101010111101 h
b1100101110010100000011101010010 h
b11011001000000010011011000110111 h
b11101100010001100010100101110111 h
b111000101000011100110011100101 h
b10110011110000000100000100111101 h
b11000001111011101111000101000101 h
b10101111010011111001000100001010 h
b10100010000010011100111110001101 h
b111000011000110011100111000010 h
b11011100000111001000010001010001 h
b10011110101100000101011100000000 h
b11001101001110100010000100000101 h
b11010101110111100010100101010001 h
b10100011111111110111011011101001 h
b10101010101111011110010110010 h
b101011001011111001101010000 h
b11010000100000100010000011101110 h
b1001100001010010101100011010101 h
b11111001011101000110000011110000 h
b10100110000100010000001001011110 h
b1100101100001000100010110100100 h
b10000001010100001111001010110100 h
b10110110110100100100101010010000 h
b11101100000001101010010011100011 h
b11001100000110011101011010001 h
b1100101110010100000011101100110 h
b11011001000000010011011001001011 h
b11101100010001100010100110001011 h
b111000101000011100110011111001 h
b10110011110000000100000101010001 h
b11000001111011101111000101011001 h
b10101111010011111001000100011110 h
b10100010000010011100111110100001 h
b111000011000110011100111010110 h
b11011100000111001000010001100101 h
b11011100000111001000010001111010 h
b111000011000110011100111101011 h
b10100010000010011100111110110110 h
b10110011110000000100000101100110 h
b11010101110111100010100101100110 h
b10011110101100000101011100010101 h
b11001101001110100010000100011010 h
b10101010101111011110011000111 h
b10100011111111110111011011111110 h
b111000101000011100110100001110 h
b10100110000100010000001001110011 h
b101011001011111001101100101 h
b11010000100000100010000100000011 h
b1001100001010010101100011101010 h
b11111001011101000110000100000101 h
b1100101100001000100010110111001 h
b10000001010100001111001011001001 h
b11101100010001100010100110100000 h
b10110110110100100100101010100101 h
b11101100000001101010010011111000 h
b11001100000110011101011100110 h
b1100101110010100000011101111011 h
b11011001000000010011011001100000 h
b10101111010011111001000100110011 h
b11000001111011101111000101101110 h
