ALU_SIMPLE/transcript
# do run.do
# vsim -voptargs=""+acc"" work.alu_tb 
# Start time: 23:31:21 on Apr 13,2025
# ** Note: (vsim-8009) Loading existing optimized design _opt1
# //  Questa Sim-64
# //  Version 10.7c win64 Aug 18 2018
# //
# //  Copyright 1991-2018 Mentor Graphics Corporation
# //  All Rights Reserved.
# //
# //  QuestaSim and its associated documentation contain trade
# //  secrets and commercial or financial information that are the property of
# //  Mentor Graphics Corporation and are privileged, confidential,
# //  and exempt from disclosure under the Freedom of Information Act,
# //  5 U.S.C. Section 552. Furthermore, this information
# //  is prohibited from disclosure under the Trade Secrets Act,
# //  18 U.S.C. Section 1905.
# //
# Loading sv_std.std
# Loading work.alu_if(fast)
# Loading mtiUvm.uvm_pkg
# Loading work.alu_pkg(fast)
# Loading work.alu_tb(fast)
# Loading work.alu_if(fast)
# Loading work.alu(fast)
# Loading mtiUvm.questa_uvm_pkg(fast)
# Loading C:/questasim64_10.7c/uvm-1.1d\win64\uvm_dpi.dll
# ----------------------------------------------------------------
# UVM-1.1d
# (C) 2007-2013 Mentor Graphics Corporation
# (C) 2007-2013 Cadence Design Systems, Inc.
# (C) 2006-2013 Synopsys, Inc.
# (C) 2011-2013 Cypress Semiconductor Corp.
# ----------------------------------------------------------------
# 
#   ***********       IMPORTANT RELEASE NOTES         ************
# 
#   You are using a version of the UVM library that has been compiled
#   with `UVM_NO_DEPRECATED undefined.
#   See http://www.eda.org/svdb/view.php?id=3313 for more details.
# 
#   You are using a version of the UVM library that has been compiled
#   with `UVM_OBJECT_MUST_HAVE_CONSTRUCTOR undefined.
#   See http://www.eda.org/svdb/view.php?id=3770 for more details.
# 
#       (Specify +UVM_NO_RELNOTES to turn off this notice)
# 
# UVM_INFO verilog_src/questa_uvm_pkg-1.2/src/questa_uvm_pkg.sv(215) @ 0: reporter [Questa UVM] QUESTA_UVM-1.2.3
# UVM_INFO verilog_src/questa_uvm_pkg-1.2/src/questa_uvm_pkg.sv(216) @ 0: reporter [Questa UVM]  questa_uvm::init(+struct)
# ** Warning: (vsim-PLI-3110) $dumpfile : This task can be called only once. Please use $fdumpfile()
# for multiple files.
#    Time: 0 ns  Iteration: 0  Process: /alu_tb/#INITIAL#18,30 File: alu_tb.sv Line: 31
# UVM_INFO @ 0: reporter [RNTST] Running test alu_test...
# UVM_INFO alu_driver.sv(39) @ 15: uvm_test_top.env.agent.drv [DRIVER] RESET DONE
# UVM_INFO alu_sequence.sv(16) @ 15: uvm_test_top.env.agent.seqr@@seq [SEQUENCE] Data send to [DRIVER] a = 131 b = 237 op_sel = 0011
# UVM_INFO alu_driver.sv(26) @ 15: uvm_test_top.env.agent.drv [DRIVER] Trigger DUT a = 131 b = 237 op_sel = 0011
# UVM_INFO alu_monitor.sv(32) @ 35: uvm_test_top.env.agent.mon [MONITOR] Data send to [SCORBOARD] a = 131 b = 237 op_sel = 0011 alu_out = 0 carry_out = 1
# UVM_INFO alu_scoreboard.sv(30) @ 35: uvm_test_top.env.scb [SCOREBOARD] Data received from [MONITOR] a = 131 b = 237 op_sel = 0011 alu_out = 0 carry_out = 1
# UVM_INFO alu_scoreboard.sv(50) @ 35: uvm_test_top.env.scb [SCOREBOARD] TEST PASSED
# UVM_INFO alu_scoreboard.sv(61) @ 35: uvm_test_top.env.scb [SCOREBOARD] TEST PASSED
# UVM_INFO alu_scoreboard.sv(71) @ 35: uvm_test_top.env.scb [SCOREBOARD] [ACCURACY] 100
# UVM_INFO alu_sequence.sv(16) @ 35: uvm_test_top.env.agent.seqr@@seq [SEQUENCE] Data send to [DRIVER] a = 7 b = 92 op_sel = 0010
# UVM_INFO alu_driver.sv(26) @ 35: uvm_test_top.env.agent.drv [DRIVER] Trigger DUT a = 7 b = 92 op_sel = 0010
# UVM_INFO alu_monitor.sv(32) @ 55: uvm_test_top.env.agent.mon [MONITOR] Data send to [SCORBOARD] a = 7 b = 92 op_sel = 0010 alu_out = 644 carry_out = 0
# UVM_INFO alu_scoreboard.sv(30) @ 55: uvm_test_top.env.scb [SCOREBOARD] Data received from [MONITOR] a = 7 b = 92 op_sel = 0010 alu_out = 644 carry_out = 0
# UVM_INFO alu_scoreboard.sv(50) @ 55: uvm_test_top.env.scb [SCOREBOARD] TEST PASSED
# UVM_INFO alu_scoreboard.sv(61) @ 55: uvm_test_top.env.scb [SCOREBOARD] TEST PASSED
# UVM_INFO alu_scoreboard.sv(71) @ 55: uvm_test_top.env.scb [SCOREBOARD] [ACCURACY] 100
# UVM_INFO alu_sequence.sv(16) @ 55: uvm_test_top.env.agent.seqr@@seq [SEQUENCE] Data send to [DRIVER] a = 227 b = 148 op_sel = 0010
# UVM_INFO alu_driver.sv(26) @ 55: uvm_test_top.env.agent.drv [DRIVER] Trigger DUT a = 227 b = 148 op_sel = 0010
# UVM_INFO alu_monitor.sv(32) @ 75: uvm_test_top.env.agent.mon [MONITOR] Data send to [SCORBOARD] a = 227 b = 148 op_sel = 0010 alu_out = 33596 carry_out = 1
# UVM_INFO alu_scoreboard.sv(30) @ 75: uvm_test_top.env.scb [SCOREBOARD] Data received from [MONITOR] a = 227 b = 148 op_sel = 0010 alu_out = 33596 carry_out = 1
# UVM_INFO alu_scoreboard.sv(50) @ 75: uvm_test_top.env.scb [SCOREBOARD] TEST PASSED
# UVM_INFO alu_scoreboard.sv(61) @ 75: uvm_test_top.env.scb [SCOREBOARD] TEST PASSED
# UVM_INFO alu_scoreboard.sv(71) @ 75: uvm_test_top.env.scb [SCOREBOARD] [ACCURACY] 100
# UVM_INFO alu_sequence.sv(16) @ 75: uvm_test_top.env.agent.seqr@@seq [SEQUENCE] Data send to [DRIVER] a = 230 b = 186 op_sel = 0010
# UVM_INFO alu_driver.sv(26) @ 75: uvm_test_top.env.agent.drv [DRIVER] Trigger DUT a = 230 b = 186 op_sel = 0010
# UVM_INFO alu_monitor.sv(32) @ 95: uvm_test_top.env.agent.mon [MONITOR] Data send to [SCORBOARD] a = 230 b = 186 op_sel = 0010 alu_out = 42780 carry_out = 1
# UVM_INFO alu_scoreboard.sv(30) @ 95: uvm_test_top.env.scb [SCOREBOARD] Data received from [MONITOR] a = 230 b = 186 op_sel = 0010 alu_out = 42780 carry_out = 1
# UVM_INFO alu_scoreboard.sv(50) @ 95: uvm_test_top.env.scb [SCOREBOARD] TEST PASSED
# UVM_INFO alu_scoreboard.sv(61) @ 95: uvm_test_top.env.scb [SCOREBOARD] TEST PASSED
# UVM_INFO alu_scoreboard.sv(71) @ 95: uvm_test_top.env.scb [SCOREBOARD] [ACCURACY] 100
# UVM_INFO alu_sequence.sv(16) @ 95: uvm_test_top.env.agent.seqr@@seq [SEQUENCE] Data send to [DRIVER] a = 187 b = 237 op_sel = 0011
# UVM_INFO alu_driver.sv(26) @ 95: uvm_test_top.env.agent.drv [DRIVER] Trigger DUT a = 187 b = 237 op_sel = 0011
# UVM_INFO alu_monitor.sv(32) @ 115: uvm_test_top.env.agent.mon [MONITOR] Data send to [SCORBOARD] a = 187 b = 237 op_sel = 0011 alu_out = 0 carry_out = 1
# UVM_INFO alu_scoreboard.sv(30) @ 115: uvm_test_top.env.scb [SCOREBOARD] Data received from [MONITOR] a = 187 b = 237 op_sel = 0011 alu_out = 0 carry_out = 1
# UVM_INFO alu_scoreboard.sv(50) @ 115: uvm_test_top.env.scb [SCOREBOARD] TEST PASSED
# UVM_INFO alu_scoreboard.sv(61) @ 115: uvm_test_top.env.scb [SCOREBOARD] TEST PASSED
# UVM_INFO alu_scoreboard.sv(71) @ 115: uvm_test_top.env.scb [SCOREBOARD] [ACCURACY] 100
# UVM_INFO alu_sequence.sv(16) @ 115: uvm_test_top.env.agent.seqr@@seq [SEQUENCE] Data send to [DRIVER] a = 101 b = 237 op_sel = 0011
# UVM_INFO alu_driver.sv(26) @ 115: uvm_test_top.env.agent.drv [DRIVER] Trigger DUT a = 101 b = 237 op_sel = 0011
# UVM_INFO alu_monitor.sv(32) @ 135: uvm_test_top.env.agent.mon [MONITOR] Data send to [SCORBOARD] a = 101 b = 237 op_sel = 0011 alu_out = 0 carry_out = 1
# UVM_INFO alu_scoreboard.sv(30) @ 135: uvm_test_top.env.scb [SCOREBOARD] Data received from [MONITOR] a = 101 b = 237 op_sel = 0011 alu_out = 0 carry_out = 1
# UVM_INFO alu_scoreboard.sv(50) @ 135: uvm_test_top.env.scb [SCOREBOARD] TEST PASSED
# UVM_INFO alu_scoreboard.sv(61) @ 135: uvm_test_top.env.scb [SCOREBOARD] TEST PASSED
# UVM_INFO alu_scoreboard.sv(71) @ 135: uvm_test_top.env.scb [SCOREBOARD] [ACCURACY] 100
# UVM_INFO alu_sequence.sv(16) @ 135: uvm_test_top.env.agent.seqr@@seq [SEQUENCE] Data send to [DRIVER] a = 138 b = 195 op_sel = 0001
# UVM_INFO alu_driver.sv(26) @ 135: uvm_test_top.env.agent.drv [DRIVER] Trigger DUT a = 138 b = 195 op_sel = 0001
# UVM_INFO alu_monitor.sv(32) @ 155: uvm_test_top.env.agent.mon [MONITOR] Data send to [SCORBOARD] a = 138 b = 195 op_sel = 0001 alu_out = 65479 carry_out = 1
# UVM_INFO alu_scoreboard.sv(30) @ 155: uvm_test_top.env.scb [SCOREBOARD] Data received from [MONITOR] a = 138 b = 195 op_sel = 0001 alu_out = 65479 carry_out = 1
# UVM_INFO alu_scoreboard.sv(50) @ 155: uvm_test_top.env.scb [SCOREBOARD] TEST PASSED
# UVM_INFO alu_scoreboard.sv(61) @ 155: uvm_test_top.env.scb [SCOREBOARD] TEST PASSED
# UVM_INFO alu_scoreboard.sv(71) @ 155: uvm_test_top.env.scb [SCOREBOARD] [ACCURACY] 100
# UVM_INFO alu_sequence.sv(16) @ 155: uvm_test_top.env.agent.seqr@@seq [SEQUENCE] Data send to [DRIVER] a = 206 b = 92 op_sel = 0011
# UVM_INFO alu_driver.sv(26) @ 155: uvm_test_top.env.agent.drv [DRIVER] Trigger DUT a = 206 b = 92 op_sel = 0011
# UVM_INFO alu_monitor.sv(32) @ 175: uvm_test_top.env.agent.mon [MONITOR] Data send to [SCORBOARD] a = 206 b = 92 op_sel = 0011 alu_out = 2 carry_out = 1
# UVM_INFO alu_scoreboard.sv(30) @ 175: uvm_test_top.env.scb [SCOREBOARD] Data received from [MONITOR] a = 206 b = 92 op_sel = 0011 alu_out = 2 carry_out = 1
# UVM_INFO alu_scoreboard.sv(50) @ 175: uvm_test_top.env.scb [SCOREBOARD] TEST PASSED
# UVM_INFO alu_scoreboard.sv(61) @ 175: uvm_test_top.env.scb [SCOREBOARD] TEST PASSED
# UVM_INFO alu_scoreboard.sv(71) @ 175: uvm_test_top.env.scb [SCOREBOARD] [ACCURACY] 100
# UVM_INFO alu_sequence.sv(16) @ 175: uvm_test_top.env.agent.seqr@@seq [SEQUENCE] Data send to [DRIVER] a = 168 b = 113 op_sel = 0011
# UVM_INFO alu_driver.sv(26) @ 175: uvm_test_top.env.agent.drv [DRIVER] Trigger DUT a = 168 b = 113 op_sel = 0011
# UVM_INFO alu_monitor.sv(32) @ 195: uvm_test_top.env.agent.mon [MONITOR] Data send to [SCORBOARD] a = 168 b = 113 op_sel = 0011 alu_out = 1 carry_out = 1
# UVM_INFO alu_scoreboard.sv(30) @ 195: uvm_test_top.env.scb [SCOREBOARD] Data received from [MONITOR] a = 168 b = 113 op_sel = 0011 alu_out = 1 carry_out = 1
# UVM_INFO alu_scoreboard.sv(50) @ 195: uvm_test_top.env.scb [SCOREBOARD] TEST PASSED
# UVM_INFO alu_scoreboard.sv(61) @ 195: uvm_test_top.env.scb [SCOREBOARD] TEST PASSED
# UVM_INFO alu_scoreboard.sv(71) @ 195: uvm_test_top.env.scb [SCOREBOARD] [ACCURACY] 100
# UVM_INFO alu_sequence.sv(16) @ 195: uvm_test_top.env.agent.seqr@@seq [SEQUENCE] Data send to [DRIVER] a = 66 b = 48 op_sel = 0001
# UVM_INFO alu_driver.sv(26) @ 195: uvm_test_top.env.agent.drv [DRIVER] Trigger DUT a = 66 b = 48 op_sel = 0001
# UVM_INFO alu_monitor.sv(32) @ 215: uvm_test_top.env.agent.mon [MONITOR] Data send to [SCORBOARD] a = 66 b = 48 op_sel = 0001 alu_out = 18 carry_out = 0
# UVM_INFO alu_scoreboard.sv(30) @ 215: uvm_test_top.env.scb [SCOREBOARD] Data received from [MONITOR] a = 66 b = 48 op_sel = 0001 alu_out = 18 carry_out = 0
# UVM_INFO alu_scoreboard.sv(50) @ 215: uvm_test_top.env.scb [SCOREBOARD] TEST PASSED
# UVM_INFO alu_scoreboard.sv(61) @ 215: uvm_test_top.env.scb [SCOREBOARD] TEST PASSED
# UVM_INFO alu_scoreboard.sv(71) @ 215: uvm_test_top.env.scb [SCOREBOARD] [ACCURACY] 100
# UVM_INFO alu_sequence.sv(16) @ 215: uvm_test_top.env.agent.seqr@@seq [SEQUENCE] Data send to [DRIVER] a = 200 b = 211 op_sel = 0011
# UVM_INFO alu_driver.sv(26) @ 215: uvm_test_top.env.agent.drv [DRIVER] Trigger DUT a = 200 b = 211 op_sel = 0011
# UVM_INFO alu_monitor.sv(32) @ 235: uvm_test_top.env.agent.mon [MONITOR] Data send to [SCORBOARD] a = 200 b = 211 op_sel = 0011 alu_out = 0 carry_out = 1
# UVM_INFO alu_scoreboard.sv(30) @ 235: uvm_test_top.env.scb [SCOREBOARD] Data received from [MONITOR] a = 200 b = 211 op_sel = 0011 alu_out = 0 carry_out = 1
# UVM_INFO alu_scoreboard.sv(50) @ 235: uvm_test_top.env.scb [SCOREBOARD] TEST PASSED
# UVM_INFO alu_scoreboard.sv(61) @ 235: uvm_test_top.env.scb [SCOREBOARD] TEST PASSED
# UVM_INFO alu_scoreboard.sv(71) @ 235: uvm_test_top.env.scb [SCOREBOARD] [ACCURACY] 100
# UVM_INFO alu_sequence.sv(16) @ 235: uvm_test_top.env.agent.seqr@@seq [SEQUENCE] Data send to [DRIVER] a = 152 b = 211 op_sel = 0011
# UVM_INFO alu_driver.sv(26) @ 235: uvm_test_top.env.agent.drv [DRIVER] Trigger DUT a = 152 b = 211 op_sel = 0011
# UVM_INFO alu_monitor.sv(32) @ 255: uvm_test_top.env.agent.mon [MONITOR] Data send to [SCORBOARD] a = 152 b = 211 op_sel = 0011 alu_out = 0 carry_out = 1
# UVM_INFO alu_scoreboard.sv(30) @ 255: uvm_test_top.env.scb [SCOREBOARD] Data received from [MONITOR] a = 152 b = 211 op_sel = 0011 alu_out = 0 carry_out = 1
# UVM_INFO alu_scoreboard.sv(50) @ 255: uvm_test_top.env.scb [SCOREBOARD] TEST PASSED
# UVM_INFO alu_scoreboard.sv(61) @ 255: uvm_test_top.env.scb [SCOREBOARD] TEST PASSED
# UVM_INFO alu_scoreboard.sv(71) @ 255: uvm_test_top.env.scb [SCOREBOARD] [ACCURACY] 100
# UVM_INFO alu_sequence.sv(16) @ 255: uvm_test_top.env.agent.seqr@@seq [SEQUENCE] Data send to [DRIVER] a = 99 b = 124 op_sel = 0000
# UVM_INFO alu_driver.sv(26) @ 255: uvm_test_top.env.agent.drv [DRIVER] Trigger DUT a = 99 b = 124 op_sel = 0000
# UVM_INFO alu_monitor.sv(32) @ 275: uvm_test_top.env.agent.mon [MONITOR] Data send to [SCORBOARD] a = 99 b = 124 op_sel = 0000 alu_out = 223 carry_out = 0
# UVM_INFO alu_scoreboard.sv(30) @ 275: uvm_test_top.env.scb [SCOREBOARD] Data received from [MONITOR] a = 99 b = 124 op_sel = 0000 alu_out = 223 carry_out = 0
# UVM_INFO alu_scoreboard.sv(50) @ 275: uvm_test_top.env.scb [SCOREBOARD] TEST PASSED
# UVM_INFO alu_scoreboard.sv(61) @ 275: uvm_test_top.env.scb [SCOREBOARD] TEST PASSED
# UVM_INFO alu_scoreboard.sv(71) @ 275: uvm_test_top.env.scb [SCOREBOARD] [ACCURACY] 100
# UVM_INFO alu_sequence.sv(16) @ 275: uvm_test_top.env.agent.seqr@@seq [SEQUENCE] Data send to [DRIVER] a = 93 b = 179 op_sel = 0001
# UVM_INFO alu_driver.sv(26) @ 275: uvm_test_top.env.agent.drv [DRIVER] Trigger DUT a = 93 b = 179 op_sel = 0001
# UVM_INFO alu_monitor.sv(32) @ 295: uvm_test_top.env.agent.mon [MONITOR] Data send to [SCORBOARD] a = 93 b = 179 op_sel = 0001 alu_out = 65450 carry_out = 1
# UVM_INFO alu_scoreboard.sv(30) @ 295: uvm_test_top.env.scb [SCOREBOARD] Data received from [MONITOR] a = 93 b = 179 op_sel = 0001 alu_out = 65450 carry_out = 1
# UVM_INFO alu_scoreboard.sv(50) @ 295: uvm_test_top.env.scb [SCOREBOARD] TEST PASSED
# UVM_INFO alu_scoreboard.sv(61) @ 295: uvm_test_top.env.scb [SCOREBOARD] TEST PASSED
# UVM_INFO alu_scoreboard.sv(71) @ 295: uvm_test_top.env.scb [SCOREBOARD] [ACCURACY] 100
# UVM_INFO alu_sequence.sv(16) @ 295: uvm_test_top.env.agent.seqr@@seq [SEQUENCE] Data send to [DRIVER] a = 193 b = 137 op_sel = 0010
# UVM_INFO alu_driver.sv(26) @ 295: uvm_test_top.env.agent.drv [DRIVER] Trigger DUT a = 193 b = 137 op_sel = 0010
# UVM_INFO alu_monitor.sv(32) @ 315: uvm_test_top.env.agent.mon [MONITOR] Data send to [SCORBOARD] a = 193 b = 137 op_sel = 0010 alu_out = 26441 carry_out = 1
# UVM_INFO alu_scoreboard.sv(30) @ 315: uvm_test_top.env.scb [SCOREBOARD] Data received from [MONITOR] a = 193 b = 137 op_sel = 0010 alu_out = 26441 carry_out = 1
# UVM_INFO alu_scoreboard.sv(50) @ 315: uvm_test_top.env.scb [SCOREBOARD] TEST PASSED
# UVM_INFO alu_scoreboard.sv(61) @ 315: uvm_test_top.env.scb [SCOREBOARD] TEST PASSED
# UVM_INFO alu_scoreboard.sv(71) @ 315: uvm_test_top.env.scb [SCOREBOARD] [ACCURACY] 100
# UVM_INFO alu_sequence.sv(16) @ 315: uvm_test_top.env.agent.seqr@@seq [SEQUENCE] Data send to [DRIVER] a = 172 b = 112 op_sel = 0011
# UVM_INFO alu_driver.sv(26) @ 315: uvm_test_top.env.agent.drv [DRIVER] Trigger DUT a = 172 b = 112 op_sel = 0011
# UVM_INFO alu_monitor.sv(32) @ 335: uvm_test_top.env.agent.mon [MONITOR] Data send to [SCORBOARD] a = 172 b = 112 op_sel = 0011 alu_out = 1 carry_out = 1
# UVM_INFO alu_scoreboard.sv(30) @ 335: uvm_test_top.env.scb [SCOREBOARD] Data received from [MONITOR] a = 172 b = 112 op_sel = 0011 alu_out = 1 carry_out = 1
# UVM_INFO alu_scoreboard.sv(50) @ 335: uvm_test_top.env.scb [SCOREBOARD] TEST PASSED
# UVM_INFO alu_scoreboard.sv(61) @ 335: uvm_test_top.env.scb [SCOREBOARD] TEST PASSED
# UVM_INFO alu_scoreboard.sv(71) @ 335: uvm_test_top.env.scb [SCOREBOARD] [ACCURACY] 100
# UVM_INFO alu_sequence.sv(16) @ 335: uvm_test_top.env.agent.seqr@@seq [SEQUENCE] Data send to [DRIVER] a = 163 b = 29 op_sel = 0011
# UVM_INFO alu_driver.sv(26) @ 335: uvm_test_top.env.agent.drv [DRIVER] Trigger DUT a = 163 b = 29 op_sel = 0011
# UVM_INFO alu_monitor.sv(32) @ 355: uvm_test_top.env.agent.mon [MONITOR] Data send to [SCORBOARD] a = 163 b = 29 op_sel = 0011 alu_out = 5 carry_out = 0
# UVM_INFO alu_scoreboard.sv(30) @ 355: uvm_test_top.env.scb [SCOREBOARD] Data received from [MONITOR] a = 163 b = 29 op_sel = 0011 alu_out = 5 carry_out = 0
# UVM_INFO alu_scoreboard.sv(50) @ 355: uvm_test_top.env.scb [SCOREBOARD] TEST PASSED
# UVM_INFO alu_scoreboard.sv(61) @ 355: uvm_test_top.env.scb [SCOREBOARD] TEST PASSED
# UVM_INFO alu_scoreboard.sv(71) @ 355: uvm_test_top.env.scb [SCOREBOARD] [ACCURACY] 100
# UVM_INFO alu_sequence.sv(16) @ 355: uvm_test_top.env.agent.seqr@@seq [SEQUENCE] Data send to [DRIVER] a = 196 b = 81 op_sel = 0001
# UVM_INFO alu_driver.sv(26) @ 355: uvm_test_top.env.agent.drv [DRIVER] Trigger DUT a = 196 b = 81 op_sel = 0001
# UVM_INFO alu_monitor.sv(32) @ 375: uvm_test_top.env.agent.mon [MONITOR] Data send to [SCORBOARD] a = 196 b = 81 op_sel = 0001 alu_out = 115 carry_out = 1
# UVM_INFO alu_scoreboard.sv(30) @ 375: uvm_test_top.env.scb [SCOREBOARD] Data received from [MONITOR] a = 196 b = 81 op_sel = 0001 alu_out = 115 carry_out = 1
# UVM_INFO alu_scoreboard.sv(50) @ 375: uvm_test_top.env.scb [SCOREBOARD] TEST PASSED
# UVM_INFO alu_scoreboard.sv(61) @ 375: uvm_test_top.env.scb [SCOREBOARD] TEST PASSED
# UVM_INFO alu_scoreboard.sv(71) @ 375: uvm_test_top.env.scb [SCOREBOARD] [ACCURACY] 100
# UVM_INFO alu_sequence.sv(16) @ 375: uvm_test_top.env.agent.seqr@@seq [SEQUENCE] Data send to [DRIVER] a = 228 b = 119 op_sel = 0001
# UVM_INFO alu_driver.sv(26) @ 375: uvm_test_top.env.agent.drv [DRIVER] Trigger DUT a = 228 b = 119 op_sel = 0001
# UVM_INFO alu_monitor.sv(32) @ 395: uvm_test_top.env.agent.mon [MONITOR] Data send to [SCORBOARD] a = 228 b = 119 op_sel = 0001 alu_out = 109 carry_out = 1
# UVM_INFO alu_scoreboard.sv(30) @ 395: uvm_test_top.env.scb [SCOREBOARD] Data received from [MONITOR] a = 228 b = 119 op_sel = 0001 alu_out = 109 carry_out = 1
# UVM_INFO alu_scoreboard.sv(50) @ 395: uvm_test_top.env.scb [SCOREBOARD] TEST PASSED
# UVM_INFO alu_scoreboard.sv(61) @ 395: uvm_test_top.env.scb [SCOREBOARD] TEST PASSED
# UVM_INFO alu_scoreboard.sv(71) @ 395: uvm_test_top.env.scb [SCOREBOARD] [ACCURACY] 100
# UVM_INFO alu_sequence.sv(16) @ 395: uvm_test_top.env.agent.seqr@@seq [SEQUENCE] Data send to [DRIVER] a = 32 b = 154 op_sel = 0011
# UVM_INFO alu_driver.sv(26) @ 395: uvm_test_top.env.agent.drv [DRIVER] Trigger DUT a = 32 b = 154 op_sel = 0011
# UVM_INFO alu_monitor.sv(32) @ 415: uvm_test_top.env.agent.mon [MONITOR] Data send to [SCORBOARD] a = 32 b = 154 op_sel = 0011 alu_out = 0 carry_out = 0
# UVM_INFO alu_scoreboard.sv(30) @ 415: uvm_test_top.env.scb [SCOREBOARD] Data received from [MONITOR] a = 32 b = 154 op_sel = 0011 alu_out = 0 carry_out = 0
# UVM_INFO alu_scoreboard.sv(50) @ 415: uvm_test_top.env.scb [SCOREBOARD] TEST PASSED
# UVM_INFO alu_scoreboard.sv(61) @ 415: uvm_test_top.env.scb [SCOREBOARD] TEST PASSED
# UVM_INFO alu_scoreboard.sv(71) @ 415: uvm_test_top.env.scb [SCOREBOARD] [ACCURACY] 100
# UVM_INFO alu_sequence.sv(16) @ 415: uvm_test_top.env.agent.seqr@@seq [SEQUENCE] Data send to [DRIVER] a = 153 b = 223 op_sel = 0010
# UVM_INFO alu_driver.sv(26) @ 415: uvm_test_top.env.agent.drv [DRIVER] Trigger DUT a = 153 b = 223 op_sel = 0010
# UVM_INFO alu_monitor.sv(32) @ 435: uvm_test_top.env.agent.mon [MONITOR] Data send to [SCORBOARD] a = 153 b = 223 op_sel = 0010 alu_out = 34119 carry_out = 1
# UVM_INFO alu_scoreboard.sv(30) @ 435: uvm_test_top.env.scb [SCOREBOARD] Data received from [MONITOR] a = 153 b = 223 op_sel = 0010 alu_out = 34119 carry_out = 1
# UVM_INFO alu_scoreboard.sv(50) @ 435: uvm_test_top.env.scb [SCOREBOARD] TEST PASSED
# UVM_INFO alu_scoreboard.sv(61) @ 435: uvm_test_top.env.scb [SCOREBOARD] TEST PASSED
# UVM_INFO alu_scoreboard.sv(71) @ 435: uvm_test_top.env.scb [SCOREBOARD] [ACCURACY] 100
# UVM_INFO alu_sequence.sv(16) @ 435: uvm_test_top.env.agent.seqr@@seq [SEQUENCE] Data send to [DRIVER] a = 121 b = 5 op_sel = 0000
# UVM_INFO alu_driver.sv(26) @ 435: uvm_test_top.env.agent.drv [DRIVER] Trigger DUT a = 121 b = 5 op_sel = 0000
# UVM_INFO alu_monitor.sv(32) @ 455: uvm_test_top.env.agent.mon [MONITOR] Data send to [SCORBOARD] a = 121 b = 5 op_sel = 0000 alu_out = 126 carry_out = 0
# UVM_INFO alu_scoreboard.sv(30) @ 455: uvm_test_top.env.scb [SCOREBOARD] Data received from [MONITOR] a = 121 b = 5 op_sel = 0000 alu_out = 126 carry_out = 0
# UVM_INFO alu_scoreboard.sv(50) @ 455: uvm_test_top.env.scb [SCOREBOARD] TEST PASSED
# UVM_INFO alu_scoreboard.sv(61) @ 455: uvm_test_top.env.scb [SCOREBOARD] TEST PASSED
# UVM_INFO alu_scoreboard.sv(71) @ 455: uvm_test_top.env.scb [SCOREBOARD] [ACCURACY] 100
# UVM_INFO alu_sequence.sv(16) @ 455: uvm_test_top.env.agent.seqr@@seq [SEQUENCE] Data send to [DRIVER] a = 7 b = 116 op_sel = 0001
# UVM_INFO alu_driver.sv(26) @ 455: uvm_test_top.env.agent.drv [DRIVER] Trigger DUT a = 7 b = 116 op_sel = 0001
# UVM_INFO alu_monitor.sv(32) @ 475: uvm_test_top.env.agent.mon [MONITOR] Data send to [SCORBOARD] a = 7 b = 116 op_sel = 0001 alu_out = 65427 carry_out = 0
# UVM_INFO alu_scoreboard.sv(30) @ 475: uvm_test_top.env.scb [SCOREBOARD] Data received from [MONITOR] a = 7 b = 116 op_sel = 0001 alu_out = 65427 carry_out = 0
# UVM_INFO alu_scoreboard.sv(50) @ 475: uvm_test_top.env.scb [SCOREBOARD] TEST PASSED
# UVM_INFO alu_scoreboard.sv(61) @ 475: uvm_test_top.env.scb [SCOREBOARD] TEST PASSED
# UVM_INFO alu_scoreboard.sv(71) @ 475: uvm_test_top.env.scb [SCOREBOARD] [ACCURACY] 100
# UVM_INFO alu_sequence.sv(16) @ 475: uvm_test_top.env.agent.seqr@@seq [SEQUENCE] Data send to [DRIVER] a = 253 b = 149 op_sel = 0000
# UVM_INFO alu_driver.sv(26) @ 475: uvm_test_top.env.agent.drv [DRIVER] Trigger DUT a = 253 b = 149 op_sel = 0000
# UVM_INFO alu_monitor.sv(32) @ 495: uvm_test_top.env.agent.mon [MONITOR] Data send to [SCORBOARD] a = 253 b = 149 op_sel = 0000 alu_out = 402 carry_out = 1
# UVM_INFO alu_scoreboard.sv(30) @ 495: uvm_test_top.env.scb [SCOREBOARD] Data received from [MONITOR] a = 253 b = 149 op_sel = 0000 alu_out = 402 carry_out = 1
# UVM_INFO alu_scoreboard.sv(50) @ 495: uvm_test_top.env.scb [SCOREBOARD] TEST PASSED
# UVM_INFO alu_scoreboard.sv(61) @ 495: uvm_test_top.env.scb [SCOREBOARD] TEST PASSED
# UVM_INFO alu_scoreboard.sv(71) @ 495: uvm_test_top.env.scb [SCOREBOARD] [ACCURACY] 100
# UVM_INFO alu_sequence.sv(16) @ 495: uvm_test_top.env.agent.seqr@@seq [SEQUENCE] Data send to [DRIVER] a = 123 b = 137 op_sel = 0011
# UVM_INFO alu_driver.sv(26) @ 495: uvm_test_top.env.agent.drv [DRIVER] Trigger DUT a = 123 b = 137 op_sel = 0011
# UVM_INFO alu_monitor.sv(32) @ 515: uvm_test_top.env.agent.mon [MONITOR] Data send to [SCORBOARD] a = 123 b = 137 op_sel = 0011 alu_out = 0 carry_out = 1
# UVM_INFO alu_scoreboard.sv(30) @ 515: uvm_test_top.env.scb [SCOREBOARD] Data received from [MONITOR] a = 123 b = 137 op_sel = 0011 alu_out = 0 carry_out = 1
# UVM_INFO alu_scoreboard.sv(50) @ 515: uvm_test_top.env.scb [SCOREBOARD] TEST PASSED
# UVM_INFO alu_scoreboard.sv(61) @ 515: uvm_test_top.env.scb [SCOREBOARD] TEST PASSED
# UVM_INFO alu_scoreboard.sv(71) @ 515: uvm_test_top.env.scb [SCOREBOARD] [ACCURACY] 100
# UVM_INFO alu_sequence.sv(16) @ 515: uvm_test_top.env.agent.seqr@@seq [SEQUENCE] Data send to [DRIVER] a = 126 b = 100 op_sel = 0010
# UVM_INFO alu_driver.sv(26) @ 515: uvm_test_top.env.agent.drv [DRIVER] Trigger DUT a = 126 b = 100 op_sel = 0010
# UVM_INFO alu_monitor.sv(32) @ 535: uvm_test_top.env.agent.mon [MONITOR] Data send to [SCORBOARD] a = 126 b = 100 op_sel = 0010 alu_out = 12600 carry_out = 0
# UVM_INFO alu_scoreboard.sv(30) @ 535: uvm_test_top.env.scb [SCOREBOARD] Data received from [MONITOR] a = 126 b = 100 op_sel = 0010 alu_out = 12600 carry_out = 0
# UVM_INFO alu_scoreboard.sv(50) @ 535: uvm_test_top.env.scb [SCOREBOARD] TEST PASSED
# UVM_INFO alu_scoreboard.sv(61) @ 535: uvm_test_top.env.scb [SCOREBOARD] TEST PASSED
# UVM_INFO alu_scoreboard.sv(71) @ 535: uvm_test_top.env.scb [SCOREBOARD] [ACCURACY] 100
# UVM_INFO alu_sequence.sv(16) @ 535: uvm_test_top.env.agent.seqr@@seq [SEQUENCE] Data send to [DRIVER] a = 194 b = 70 op_sel = 0011
# UVM_INFO alu_driver.sv(26) @ 535: uvm_test_top.env.agent.drv [DRIVER] Trigger DUT a = 194 b = 70 op_sel = 0011
