SPI_MEMORY/VERIFY/dump.vcd
$date
	Thu Apr 17 00:34:32 2025
$end
$version
	QuestaSim Version 10.7c
$end
$timescale
	1ns
$end

$scope module spi_tb $end
$var reg 1 ! clk $end

$scope module tif $end
$var wire 1 " clk $end
$var reg 1 # rstn $end
$var reg 1 $ wr $end
$var reg 8 % addr [7:0] $end
$var reg 8 & din [7:0] $end
$var reg 8 ' dout [7:0] $end
$var reg 1 ( done $end
$var reg 1 ) error $end
$upscope $end

$scope module spi_dut $end
$var wire 1 * clk $end
$var wire 1 + rstn $end
$var wire 1 , wr $end
$var wire 1 - addr [7] $end
$var wire 1 . addr [6] $end
$var wire 1 / addr [5] $end
$var wire 1 0 addr [4] $end
$var wire 1 1 addr [3] $end
$var wire 1 2 addr [2] $end
$var wire 1 3 addr [1] $end
$var wire 1 4 addr [0] $end
$var wire 1 5 din [7] $end
$var wire 1 6 din [6] $end
$var wire 1 7 din [5] $end
$var wire 1 8 din [4] $end
$var wire 1 9 din [3] $end
$var wire 1 : din [2] $end
$var wire 1 ; din [1] $end
$var wire 1 < din [0] $end
$var wire 1 = done $end
$var wire 1 > error $end
$var wire 1 ? dout [7] $end
$var wire 1 @ dout [6] $end
$var wire 1 A dout [5] $end
$var wire 1 B dout [4] $end
$var wire 1 C dout [3] $end
$var wire 1 D dout [2] $end
$var wire 1 E dout [1] $end
$var wire 1 F dout [0] $end
$var wire 1 G cs $end
$var wire 1 H mosi $end
$var wire 1 I miso $end
$var wire 1 J ready $end
$var wire 1 K op_done $end

$scope module master_dut $end
$var wire 1 * clk $end
$var wire 1 + rstn $end
$var wire 1 , wr $end
$var wire 1 J ready $end
$var wire 1 K op_done $end
$var wire 1 I miso $end
$var wire 1 - addr [7] $end
$var wire 1 . addr [6] $end
$var wire 1 / addr [5] $end
$var wire 1 0 addr [4] $end
$var wire 1 1 addr [3] $end
$var wire 1 2 addr [2] $end
$var wire 1 3 addr [1] $end
$var wire 1 4 addr [0] $end
$var wire 1 5 din [7] $end
$var wire 1 6 din [6] $end
$var wire 1 7 din [5] $end
$var wire 1 8 din [4] $end
$var wire 1 9 din [3] $end
$var wire 1 : din [2] $end
$var wire 1 ; din [1] $end
$var wire 1 < din [0] $end
$var reg 1 L mosi $end
$var reg 1 M cs $end
$var reg 1 N done $end
$var reg 1 O error $end
$var wire 1 ? dout [7] $end
$var wire 1 @ dout [6] $end
$var wire 1 A dout [5] $end
$var wire 1 B dout [4] $end
$var wire 1 C dout [3] $end
$var wire 1 D dout [2] $end
$var wire 1 E dout [1] $end
$var wire 1 F dout [0] $end
$var reg 17 P din_m [16:0] $end
$var reg 8 Q dout_m [7:0] $end
$var integer 32 R count $end
$var reg 3 S state [2:0] $end
$upscope $end

$scope module slave_dut $end
$var wire 1 * clk $end
$var wire 1 + rstn $end
$var wire 1 G cs $end
$var wire 1 H mosi $end
$var reg 1 T op_done $end
$var reg 1 U ready $end
$var reg 1 V miso $end
$var integer 32 W count $end
$var reg 16 X din_s [15:0] $end
$var reg 8 Y dout_s [7:0] $end
$var reg 3 Z state [2:0] $end
$upscope $end
$upscope $end
$upscope $end

$scope begin uvm_pkg $end
$var parameter 32 [ UVM_HDL_MAX_WIDTH $end
$var parameter 32 \ UVM_STREAMBITS $end
$var parameter 32 ] UVM_RADIX $end
$var parameter 32 ^ UVM_MACRO_NUMFLAGS $end
$var parameter 32 _ UVM_DEFAULT $end
$var parameter 32 ` UVM_ALL_ON $end
$var parameter 32 a UVM_FLAGS_ON $end
$var parameter 32 b UVM_FLAGS_OFF $end
$var parameter 32 c UVM_COPY $end
$var parameter 32 d UVM_NOCOPY $end
$var parameter 32 e UVM_COMPARE $end
$var parameter 32 f UVM_NOCOMPARE $end
$var parameter 32 g UVM_PRINT $end
$var parameter 32 h UVM_NOPRINT $end
$var parameter 32 i UVM_RECORD $end
$var parameter 32 j UVM_NORECORD $end
$var parameter 32 k UVM_PACK $end
$var parameter 32 l UVM_NOPACK $end
$var parameter 32 m UVM_PHYSICAL $end
$var parameter 32 n UVM_ABSTRACT $end
$var parameter 32 o UVM_READONLY $end
$var parameter 32 p UVM_NODEFPRINT $end
$var parameter 32 q UVM_MACRO_EXTRAS $end
$var parameter 32 r UVM_FLAGS $end
$var parameter 32 s UVM_UNPACK $end
$var parameter 32 t UVM_CHECK_FIELDS $end
$var parameter 32 u UVM_END_DATA_EXTRA $end
$var parameter 32 v UVM_START_FUNCS $end
$var parameter 32 w UVM_SET $end
$var parameter 32 x UVM_SETINT $end
$var parameter 32 y UVM_SETOBJ $end
$var parameter 32 z UVM_SETSTR $end
$var parameter 32 { UVM_END_FUNCS $end
$var parameter 32 | UVM_STR_CRC_POLYNOMIAL $end
$var parameter 32 } UVM_STDOUT $end
$var parameter 32 ~ UVM_LINE_WIDTH $end
$var parameter 32 !! UVM_NUM_LINES $end
$var parameter 32 "! UVM_SMALL_STRING $end
$var parameter 32 #! UVM_LARGE_STRING $end
$var reg 1 $! uvm_start_uvm_declarations $end
$var integer 32 %! uvm_global_random_seed $end
$var integer 32 &! UVM_UNBOUNDED_CONNECTIONS $end

$scope function uvm_hdl_check_path $end
$var integer 32 '! uvm_hdl_check_path $end
$upscope $end

$scope function uvm_hdl_deposit $end
$var integer 32 (! uvm_hdl_deposit $end
$var reg 1024 )! value [1023:0] $end
$upscope $end

$scope function uvm_hdl_force $end
$var integer 32 *! uvm_hdl_force $end
$var reg 1024 +! value [1023:0] $end
$upscope $end

$scope task uvm_hdl_force_time $end
$var reg 1024 ,! value [1023:0] $end
$var time 64 -! force_time $end
$upscope $end

$scope function uvm_hdl_release_and_read $end
$var integer 32 .! uvm_hdl_release_and_read $end
$var reg 1024 /! value [1023:0] $end
$upscope $end

$scope function uvm_hdl_release $end
$var integer 32 0! uvm_hdl_release $end
$upscope $end

$scope function uvm_hdl_read $end
$var integer 32 1! uvm_hdl_read $end
$var reg 1024 2! value [1023:0] $end
$upscope $end

$scope function uvm_dpi_regexec $end
$var integer 32 3! uvm_dpi_regexec $end
$upscope $end

$scope function uvm_re_match $end
$var integer 32 4! uvm_re_match $end
$upscope $end

$scope function uvm_radix_to_string $end
$var integer 32 5! radix $end
$upscope $end

$scope function uvm_instance_scope $end
$var reg 8 6! c [7:0] $end
$var integer 32 7! pos $end
$upscope $end

$scope function uvm_oneway_hash $end
$var integer 32 8! uvm_oneway_hash $end
$var integer 32 9! seed $end
$var reg 1 :! msb $end
$var reg 8 ;! current_byte [7:0] $end
$var reg 32 <! crc1 [31:0] $end
$upscope $end

$scope function uvm_create_random_seed $end
$var integer 32 =! uvm_create_random_seed $end
$upscope $end

$scope function uvm_leaf_scope $end
$var reg 8 >! scope_separator [7:0] $end
$var reg 8 ?! bracket_match [7:0] $end
$var integer 32 @! pos $end
$var integer 32 A! bmatches $end
$upscope $end

$scope function uvm_vector_to_string $end
$var reg 4096 B! value [4095:0] $end
$var integer 32 C! size $end
$var integer 32 D! radix $end
$upscope $end

$scope function uvm_get_array_index_int $end
$var integer 32 E! uvm_get_array_index_int $end
$var reg 1 F! is_wildcard $end
$var integer 32 G! i $end
$upscope $end

$scope function uvm_get_array_index_string $end
$var reg 1 H! is_wildcard $end
$var integer 32 I! i $end
$upscope $end

$scope function uvm_is_array $end
$var reg 1 J! uvm_is_array $end
$upscope $end

$scope function set_global_timeout $end
$var time 64 K! timeout $end
$var reg 1 L! overridable $end
$upscope $end

$scope function set_global_stop_timeout $end
$var time 64 M! timeout $end
$upscope $end

$scope function uvm_report_enabled $end
$var reg 1 N! uvm_report_enabled $end
$var integer 32 O! verbosity $end
$var reg 2 P! severity [1:0] $end
$upscope $end

$scope function uvm_report $end
$var reg 2 Q! severity [1:0] $end
$var integer 32 R! verbosity $end
$var integer 32 S! line $end
$upscope $end

$scope function uvm_report_info $end
$var integer 32 T! verbosity $end
$var integer 32 U! line $end
$upscope $end

$scope function uvm_report_warning $end
$var integer 32 V! verbosity $end
$var integer 32 W! line $end
$upscope $end

$scope function uvm_report_error $end
$var integer 32 X! verbosity $end
$var integer 32 Y! line $end
$upscope $end

$scope function uvm_report_fatal $end
$var integer 32 Z! verbosity $end
$var integer 32 [! line $end
$upscope $end

$scope function uvm_string_to_severity $end
$var reg 1 \! uvm_string_to_severity $end
$var reg 2 ]! sev [1:0] $end
$upscope $end

$scope function set_config_int $end
$var reg 4096 ^! value [4095:0] $end
$upscope $end

$scope function set_config_object $end
$var reg 1 _! clone $end
$upscope $end

$scope function uvm_is_match $end
$var reg 1 `! uvm_is_match $end
$upscope $end

$scope function uvm_string_to_bits $end
$var reg 115200 a! uvm_string_to_bits [115199:0] $end
$upscope $end

$scope function uvm_bits_to_string $end
$var reg 115200 b! str [115199:0] $end
$upscope $end

$scope task uvm_wait_for_nba_region $end
$var integer 32 c! nba $end
$var integer 32 d! next_nba $end
$upscope $end
$upscope $end

$scope module uvm_root $end
$upscope $end

$scope module spi_tb $end

$scope module spi_dut $end
$var wire 1 * clk $end
$var wire 1 + rstn $end
$var wire 1 , wr $end
$var wire 1 - addr [7] $end
$var wire 1 . addr [6] $end
$var wire 1 / addr [5] $end
$var wire 1 0 addr [4] $end
$var wire 1 1 addr [3] $end
$var wire 1 2 addr [2] $end
$var wire 1 3 addr [1] $end
$var wire 1 4 addr [0] $end
$var wire 1 5 din [7] $end
$var wire 1 6 din [6] $end
$var wire 1 7 din [5] $end
$var wire 1 8 din [4] $end
$var wire 1 9 din [3] $end
$var wire 1 : din [2] $end
$var wire 1 ; din [1] $end
$var wire 1 < din [0] $end
$var wire 1 = done $end
$var wire 1 > error $end
$var wire 1 ? dout [7] $end
$var wire 1 @ dout [6] $end
$var wire 1 A dout [5] $end
$var wire 1 B dout [4] $end
$var wire 1 C dout [3] $end
$var wire 1 D dout [2] $end
$var wire 1 E dout [1] $end
$var wire 1 F dout [0] $end
$var wire 1 G cs $end
$var wire 1 H mosi $end
$var wire 1 I miso $end
$var wire 1 J ready $end
$var wire 1 K op_done $end

$scope module master_dut $end
$var wire 1 * clk $end
$var wire 1 + rstn $end
$var wire 1 , wr $end
$var wire 1 J ready $end
$var wire 1 K op_done $end
$var wire 1 I miso $end
$var wire 1 - addr [7] $end
$var wire 1 . addr [6] $end
$var wire 1 / addr [5] $end
$var wire 1 0 addr [4] $end
$var wire 1 1 addr [3] $end
$var wire 1 2 addr [2] $end
$var wire 1 3 addr [1] $end
$var wire 1 4 addr [0] $end
$var wire 1 5 din [7] $end
$var wire 1 6 din [6] $end
$var wire 1 7 din [5] $end
$var wire 1 8 din [4] $end
$var wire 1 9 din [3] $end
$var wire 1 : din [2] $end
$var wire 1 ; din [1] $end
$var wire 1 < din [0] $end
$var wire 1 ? dout [7] $end
$var wire 1 @ dout [6] $end
$var wire 1 A dout [5] $end
$var wire 1 B dout [4] $end
$var wire 1 C dout [3] $end
$var wire 1 D dout [2] $end
$var wire 1 E dout [1] $end
$var wire 1 F dout [0] $end
$upscope $end

$scope module slave_dut $end
$var wire 1 * clk $end
$var wire 1 + rstn $end
$var wire 1 G cs $end
$var wire 1 H mosi $end
$upscope $end
$upscope $end
$upscope $end

$scope begin uvm_pkg $end

$scope function uvm_hdl_check_path $end
$upscope $end

$scope function uvm_hdl_deposit $end
$upscope $end

$scope function uvm_hdl_force $end
$upscope $end

$scope task uvm_hdl_force_time $end
$upscope $end

$scope function uvm_hdl_release_and_read $end
$upscope $end

$scope function uvm_hdl_release $end
$upscope $end

$scope function uvm_hdl_read $end
$upscope $end

$scope function uvm_dpi_get_next_arg_c $end
$upscope $end

$scope function uvm_dpi_get_tool_name_c $end
$upscope $end

$scope function uvm_dpi_get_tool_version_c $end
$upscope $end

$scope function uvm_dpi_get_next_arg $end
$upscope $end

$scope function uvm_dpi_get_tool_name $end
$upscope $end

$scope function uvm_dpi_get_tool_version $end
$upscope $end

$scope function uvm_dpi_regcomp $end
$upscope $end

$scope function uvm_dpi_regexec $end
$upscope $end

$scope function uvm_dpi_regfree $end
$upscope $end

$scope function uvm_re_match $end
$upscope $end

$scope function uvm_dump_re_cache $end
$upscope $end

$scope function uvm_glob_to_re $end
$upscope $end

$scope function uvm_revision_string $end
$upscope $end

$scope function uvm_radix_to_string $end
$upscope $end

$scope function uvm_instance_scope $end
$upscope $end

$scope function uvm_oneway_hash $end
$upscope $end

$scope function uvm_create_random_seed $end
$upscope $end

$scope function uvm_object_value_str $end
$upscope $end

$scope function uvm_leaf_scope $end
$upscope $end

$scope function uvm_vector_to_string $end
$upscope $end

$scope function uvm_get_array_index_int $end
$upscope $end

$scope function uvm_get_array_index_string $end
$upscope $end

$scope function uvm_is_array $end
$upscope $end

$scope function uvm_has_wildcard $end
$upscope $end

$scope task run_test $end
$upscope $end

$scope function global_stop_request $end
$upscope $end

$scope function set_global_timeout $end
$upscope $end

$scope function set_global_stop_timeout $end
$upscope $end

$scope function uvm_report_enabled $end
$upscope $end

$scope function uvm_report $end
$upscope $end

$scope function uvm_report_info $end
$upscope $end

$scope function uvm_report_warning $end
$upscope $end

$scope function uvm_report_error $end
$upscope $end

$scope function uvm_report_fatal $end
$upscope $end

$scope function uvm_string_to_severity $end
$upscope $end

$scope function uvm_string_to_action $end
$upscope $end

$scope function set_config_int $end
$upscope $end

$scope function set_config_object $end
$upscope $end

$scope function set_config_string $end
$upscope $end

$scope function uvm_is_match $end
$upscope $end

$scope function uvm_string_to_bits $end
$upscope $end

$scope function uvm_bits_to_string $end
$upscope $end

$scope task uvm_wait_for_nba_region $end
$upscope $end

$scope function uvm_split_string $end
$upscope $end

$scope function uvm_hdl_concat2string $end
$upscope $end
$upscope $end

$scope begin spi_pkg $end
$upscope $end

$scope begin std $end
$upscope $end

$scope begin questa_uvm_pkg $end
$upscope $end
$enddefinitions $end
#0
$dumpvars
0H!
0J!
0\!
b0 ]!
bx a!
bx b!
bx )!
bx +!
bx ,!
bx /!
bx 2!
1$!
1:!
b1101101 ;!
b110001000001000011000001110111 <!
bx B!
0F!
0L!
0N!
b0 P!
b0 Q!
bx ^!
0_!
0`!
0!
0#
0$
b0 %
b0 &
bx '
0(
0)
0L
1M
0N
0O
bx P
bx Q
b0 S
0T
0U
0V
bx X
bx Y
b0 Z
b10000000000 [
b1000000000000 \
b1111000000000000000000000000 ]
b10001 ^
b10101010101 _
b101010101 `
b101010101 a
b0 b
b1 c
b10 d
b100 e
b1000 f
b10000 g
b100000 h
b1000000 i
b10000000 j
b100000000 k
b1000000000 l
b10000000000000 m
b100000000000000 n
b1000000000000000 o
b10000000000000000 p
b100000000000000000 q
b100000000000000001 r
b100000000000000010 s
b100000000000000011 t
b100000000000000100 u
b100000000000000101 v
b100000000000000110 w
b100000000000000110 x
b100000000000000111 y
b100000000000001000 z
b100000000000001000 {
b100110000010001110110110110 |
b1 }
b1111000 ~
b1111000 !!
b1110111111 "!
b11100000111111111 #!
b0 5!
b0 >!
b0 ?!
b0 @!
b0 A!
b0 I!
b0 '!
b0 (!
b0 *!
b0 .!
b0 0!
b0 1!
b1 3!
b0 4!
b1101001011000001111100000011110 %!
b101110 6!
b111 7!
b11110010001100001111001111101100 8!
b1101001011000001111100000011110 9!
b10011110101100000101011011000111 =!
b0 C!
b0 D!
b0 E!
b0 G!
b111110100 O!
b0 R!
b0 S!
b11001000 T!
b11011000 U!
b0 V!
b0 W!
b0 X!
b0 Y!
b0 Z!
b0 [!
b100011 c!
b100011 d!
b11111111111111111111111111111111 &!
b0 R
b0 W
bx -!
bx K!
bx M!
0"
0*
0+
0,
04
03
02
01
00
0/
0.
0-
0<
0;
0:
09
08
07
06
05
0=
0>
xF
xE
xD
xC
xB
xA
x@
x?
1G
0H
0I
0J
0K
$end
#10
1!
1"
1*
b100100 d!
b100100 c!
1#
1$
b11 %
b11101001 &
1,
1<
19
17
16
15
14
13
1+
#20
0!
0"
0*
#30
1!
1"
1*
b0 X
b1 S
#40
0!
0"
0*
#50
1!
1"
1*
b11101001000000111 P
b10 S
#60
0!
0"
0*
#70
1!
1"
1*
0M
b11 S
0G
#80
0!
0"
0*
#90
1!
1"
1*
b1 Z
b1 R
1L
1H
#100
0!
0"
0*
#110
1!
1"
1*
b10 R
b10 Z
#120
0!
0"
0*
#130
1!
1"
1*
b1 X
b1 W
b11 R
#140
0!
0"
0*
#150
1!
1"
1*
b100 R
0L
b11 X
b10 W
0H
#160
0!
0"
0*
#170
1!
1"
1*
b11 W
b101 R
#180
0!
0"
0*
#190
1!
1"
1*
b110 R
b100 W
#200
0!
0"
0*
#210
1!
1"
1*
b101 W
b111 R
#220
0!
0"
0*
#230
1!
1"
1*
b1000 R
b110 W
#240
0!
0"
0*
#250
1!
1"
1*
b111 W
b1001 R
#260
0!
0"
0*
#270
1!
1"
1*
b1010 R
1L
b1000 W
1H
#280
0!
0"
0*
#290
1!
1"
1*
b100000011 X
b1001 W
b1011 R
0L
0H
#300
0!
0"
0*
#310
1!
1"
1*
b1100 R
b1010 W
#320
0!
0"
0*
#330
1!
1"
1*
b1011 W
b1101 R
1L
1H
#340
0!
0"
0*
#350
1!
1"
1*
b1110 R
0L
b100100000011 X
b1100 W
0H
#360
0!
0"
0*
#370
1!
1"
1*
b1101 W
b1111 R
1L
1H
#380
0!
0"
0*
#390
1!
1"
1*
b10000 R
b10100100000011 X
b1110 W
#400
0!
0"
0*
#410
1!
1"
1*
b110100100000011 X
b1111 W
b10001 R
#420
0!
0"
0*
#430
1!
1"
1*
1M
0L
b1110100100000011 X
b10000 W
1G
0H
#440
0!
0"
0*
#450
1!
1"
1*
b0 W
b0 Z
1T
1K
#460
0!
0"
0*
#470
1!
1"
1*
b0 R
1N
b0 S
0T
b0 X
1=
0K
1(
b100101 d!
b11011010000001011010110001100100 =!
b11110010001100001111001111101101 =!
b100101 c!
b100 %
b10010011 &
1;
09
18
07
06
04
03
12
#480
0!
0"
0*
#490
1!
1"
1*
b1 S
0N
0=
0(
#500
0!
0"
0*
#510
1!
1"
1*
b10010011000001001 P
b10 S
#520
0!
0"
0*
#530
1!
1"
1*
0M
b11 S
0G
#540
0!
0"
0*
#550
1!
1"
1*
b1 Z
b1 R
1L
1H
#560
0!
0"
0*
#570
1!
1"
1*
b10 R
0L
b10 Z
0H
#580
0!
0"
0*
#590
1!
1"
1*
b1 W
b11 R
#600
0!
0"
0*
#610
1!
1"
1*
b100 R
1L
b10 W
1H
#620
0!
0"
0*
#630
1!
1"
1*
b100 X
b11 W
b101 R
0L
0H
#640
0!
0"
0*
#650
1!
1"
1*
b110 R
b100 W
#660
0!
0"
0*
#670
1!
1"
1*
b101 W
b111 R
#680
0!
0"
0*
#690
1!
1"
1*
b1000 R
b110 W
#700
0!
0"
0*
#710
1!
1"
1*
b111 W
b1001 R
#720
0!
0"
0*
#730
1!
1"
1*
b1010 R
1L
b1000 W
1H
#740
0!
0"
0*
#750
1!
1"
1*
b100000100 X
b1001 W
b1011 R
#760
0!
0"
0*
#770
1!
1"
1*
b1100 R
0L
b1100000100 X
b1010 W
0H
#780
0!
0"
0*
#790
1!
1"
1*
b1011 W
b1101 R
#800
0!
0"
0*
#810
1!
1"
1*
b1110 R
1L
b1100 W
1H
#820
0!
0"
0*
#830
1!
1"
1*
b1001100000100 X
b1101 W
b1111 R
0L
0H
#840
0!
0"
0*
#850
1!
1"
1*
b10000 R
b1110 W
#860
0!
0"
0*
#870
1!
1"
1*
b1111 W
b10001 R
1L
1H
#880
0!
0"
0*
#890
1!
1"
1*
1M
0L
b1001001100000100 X
b10000 W
1G
0H
#900
0!
0"
0*
#910
1!
1"
1*
b0 W
b0 Z
1T
1K
#920
0!
0"
0*
#930
1!
1"
1*
b0 R
1N
b0 S
0T
b0 X
1=
0K
1(
b100110 d!
b11011010000001011010110001100110 =!
b11110010001100001111001111101111 =!
b100110 c!
b0 %
b1100 &
0<
0;
1:
19
08
05
02
#940
0!
0"
0*
#950
1!
1"
1*
b1 S
0N
0=
0(
#960
0!
0"
0*
#970
1!
1"
1*
b1100000000001 P
b10 S
#980
0!
0"
0*
#990
1!
1"
1*
0M
b11 S
0G
#1000
0!
0"
0*
#1010
1!
1"
1*
b1 Z
b1 R
1L
1H
#1020
0!
0"
0*
#1030
1!
1"
1*
b10 R
0L
b10 Z
0H
#1040
0!
0"
0*
#1050
1!
1"
1*
b1 W
b11 R
#1060
0!
0"
0*
#1070
1!
1"
1*
b100 R
b10 W
#1080
0!
0"
0*
#1090
1!
1"
1*
b11 W
b101 R
#1100
0!
0"
0*
#1110
1!
1"
1*
b110 R
b100 W
#1120
0!
0"
0*
#1130
1!
1"
1*
b101 W
b111 R
#1140
0!
0"
0*
#1150
1!
1"
1*
b1000 R
b110 W
#1160
0!
0"
0*
#1170
1!
1"
1*
b111 W
b1001 R
#1180
0!
0"
0*
#1190
1!
1"
1*
b1010 R
b1000 W
#1200
0!
0"
0*
#1210
1!
1"
1*
b1001 W
b1011 R
#1220
0!
0"
0*
#1230
1!
1"
1*
b1100 R
1L
b1010 W
1H
#1240
0!
0"
0*
#1250
1!
1"
1*
b10000000000 X
b1011 W
b1101 R
#1260
0!
0"
0*
#1270
1!
1"
1*
b1110 R
0L
b110000000000 X
b1100 W
0H
#1280
0!
0"
0*
#1290
1!
1"
1*
b1101 W
b1111 R
#1300
0!
0"
0*
#1310
1!
1"
1*
b10000 R
b1110 W
#1320
0!
0"
0*
#1330
1!
1"
1*
b1111 W
b10001 R
#1340
0!
0"
0*
#1350
1!
1"
1*
1M
b10000 W
1G
#1360
0!
0"
0*
#1370
1!
1"
1*
b0 W
b0 Z
1T
1K
#1380
0!
0"
0*
#1390
1!
1"
1*
b0 R
1N
b0 S
0T
b0 X
1=
0K
1(
b100111 d!
b11011010000001011010110001101001 =!
b11110010001100001111001111110010 =!
b100111 c!
b1000 %
b10011 &
1<
1;
0:
09
18
11
#1400
0!
0"
0*
#1410
1!
1"
1*
b1 S
0N
0=
0(
#1420
0!
0"
0*
#1430
1!
1"
1*
b10011000010001 P
b10 S
#1440
0!
0"
0*
#1450
1!
1"
1*
0M
b11 S
0G
#1460
0!
0"
0*
#1470
1!
1"
1*
b1 Z
b1 R
1L
1H
#1480
0!
0"
0*
#1490
1!
1"
1*
b10 R
0L
b10 Z
0H
#1500
0!
0"
0*
#1510
1!
1"
1*
b1 W
b11 R
#1520
0!
0"
0*
#1530
1!
1"
1*
b100 R
b10 W
#1540
0!
0"
0*
#1550
1!
1"
1*
b11 W
b101 R
1L
1H
#1560
0!
0"
0*
#1570
1!
1"
1*
b110 R
0L
b1000 X
b100 W
0H
#1580
0!
0"
0*
#1590
1!
1"
1*
b101 W
b111 R
#1600
0!
0"
0*
#1610
1!
1"
1*
b1000 R
b110 W
#1620
0!
0"
0*
#1630
1!
1"
1*
b111 W
b1001 R
#1640
0!
0"
0*
#1650
1!
1"
1*
b1010 R
1L
b1000 W
1H
#1660
0!
0"
0*
#1670
1!
1"
1*
b100001000 X
b1001 W
b1011 R
#1680
0!
0"
0*
#1690
1!
1"
1*
b1100 R
0L
b1100001000 X
b1010 W
0H
#1700
0!
0"
0*
#1710
1!
1"
1*
b1011 W
b1101 R
#1720
0!
0"
0*
#1730
1!
1"
1*
b1110 R
1L
b1100 W
1H
#1740
0!
0"
0*
#1750
1!
1"
1*
b1001100001000 X
b1101 W
b1111 R
0L
0H
#1760
0!
0"
0*
#1770
1!
1"
1*
b10000 R
b1110 W
#1780
0!
0"
0*
#1790
1!
1"
1*
b1111 W
b10001 R
#1800
0!
0"
0*
#1810
1!
1"
1*
1M
b10000 W
1G
#1820
0!
0"
0*
#1830
1!
1"
1*
b0 W
b0 Z
1T
1K
#1840
0!
0"
0*
#1850
1!
1"
1*
b0 R
1N
b0 S
0T
b0 X
1=
0K
1(
b101000 d!
b11011010000001011010110001101101 =!
b11110010001100001111001111110110 =!
b101000 c!
b110 %
b111101 &
0;
1:
19
17
13
12
01
#1860
0!
0"
0*
#1870
1!
1"
1*
b1 S
0N
0=
0(
#1880
0!
0"
0*
#1890
1!
1"
1*
b111101000001101 P
b10 S
#1900
0!
0"
0*
#1910
1!
1"
1*
0M
b11 S
0G
#1920
0!
0"
0*
#1930
1!
1"
1*
b1 Z
b1 R
1L
1H
#1940
0!
0"
0*
#1950
1!
1"
1*
b10 R
0L
b10 Z
0H
#1960
0!
0"
0*
#1970
1!
1"
1*
b1 W
b11 R
1L
1H
#1980
0!
0"
0*
#1990
1!
1"
1*
b100 R
b10 X
b10 W
#2000
0!
0"
0*
#2010
1!
1"
1*
b110 X
b11 W
b101 R
0L
0H
#2020
0!
0"
0*
#2030
1!
1"
1*
b110 R
b100 W
#2040
0!
0"
0*
#2050
1!
1"
1*
b101 W
b111 R
#2060
0!
0"
0*
#2070
1!
1"
1*
b1000 R
b110 W
#2080
0!
0"
0*
#2090
1!
1"
1*
b111 W
b1001 R
#2100
0!
0"
0*
#2110
1!
1"
1*
b1010 R
1L
b1000 W
1H
#2120
0!
0"
0*
#2130
1!
1"
1*
b100000110 X
b1001 W
b1011 R
0L
0H
#2140
0!
0"
0*
#2150
1!
1"
1*
b1100 R
1L
b1010 W
1H
#2160
0!
0"
0*
#2170
1!
1"
1*
b10100000110 X
b1011 W
b1101 R
#2180
0!
0"
0*
#2190
1!
1"
1*
b1110 R
b110100000110 X
b1100 W
#2200
0!
0"
0*
#2210
1!
1"
1*
b1110100000110 X
b1101 W
b1111 R
#2220
0!
0"
0*
#2230
1!
1"
1*
b10000 R
0L
b11110100000110 X
b1110 W
0H
#2240
0!
0"
0*
#2250
1!
1"
1*
b1111 W
b10001 R
#2260
0!
0"
0*
#2270
1!
1"
1*
1M
b10000 W
1G
#2280
0!
0"
0*
#2290
1!
1"
1*
b0 W
b0 Z
1T
1K
#2300
0!
0"
0*
#2310
1!
1"
1*
b0 R
1N
b0 S
0T
b0 X
1=
0K
1(
b101001 d!
b11011010000001011010110001110010 =!
b11110010001100001111001111111011 =!
b101001 c!
b11000100 &
0<
09
08
07
16
15
#2320
0!
0"
0*
#2330
1!
1"
1*
b1 S
0N
0=
0(
#2340
0!
0"
0*
#2350
1!
1"
1*
b11000100000001101 P
b10 S
#2360
0!
0"
0*
#2370
1!
1"
1*
0M
b11 S
0G
#2380
0!
0"
0*
#2390
1!
1"
1*
b1 Z
b1 R
1L
1H
#2400
0!
0"
0*
#2410
1!
1"
1*
b10 R
0L
b10 Z
0H
#2420
0!
0"
0*
#2430
1!
1"
1*
b1 W
b11 R
1L
1H
#2440
0!
0"
0*
#2450
1!
1"
1*
b100 R
b10 X
b10 W
#2460
0!
0"
0*
#2470
1!
1"
1*
b110 X
b11 W
b101 R
0L
0H
#2480
0!
0"
0*
#2490
1!
1"
1*
b110 R
b100 W
#2500
0!
0"
0*
#2510
1!
1"
1*
b101 W
b111 R
#2520
0!
0"
0*
#2530
1!
1"
1*
b1000 R
b110 W
#2540
0!
0"
0*
#2550
1!
1"
1*
b111 W
b1001 R
#2560
0!
0"
0*
#2570
1!
1"
1*
b1010 R
b1000 W
#2580
0!
0"
0*
#2590
1!
1"
1*
b1001 W
b1011 R
#2600
0!
0"
0*
#2610
1!
1"
1*
b1100 R
1L
b1010 W
1H
#2620
0!
0"
0*
#2630
1!
1"
1*
b10000000110 X
b1011 W
b1101 R
0L
0H
#2640
0!
0"
0*
#2650
1!
1"
1*
b1110 R
b1100 W
#2660
0!
0"
0*
#2670
1!
1"
1*
b1101 W
b1111 R
#2680
0!
0"
0*
#2690
1!
1"
1*
b10000 R
1L
b1110 W
1H
#2700
0!
0"
0*
#2710
1!
1"
1*
b100010000000110 X
b1111 W
b10001 R
#2720
0!
0"
0*
#2730
1!
1"
1*
1M
0L
b1100010000000110 X
b10000 W
1G
0H
#2740
0!
0"
0*
#2750
1!
1"
1*
b0 W
b0 Z
1T
1K
#2760
0!
0"
0*
#2770
1!
1"
1*
b0 R
1N
b0 S
0T
b0 X
1=
0K
1(
b101010 d!
b11011010000001011010110001111000 =!
b11110010001100001111010000000001 =!
b101010 c!
b10 %
b1001000 &
0:
19
05
02
#2780
0!
0"
0*
#2790
1!
1"
1*
b1 S
0N
0=
0(
#2800
0!
0"
0*
#2810
1!
1"
1*
b1001000000000101 P
b10 S
#2820
0!
0"
0*
#2830
1!
1"
1*
0M
b11 S
0G
#2840
0!
0"
0*
#2850
1!
1"
1*
b1 Z
b1 R
1L
1H
#2860
0!
0"
0*
#2870
1!
1"
1*
b10 R
0L
b10 Z
0H
#2880
0!
0"
0*
#2890
1!
1"
1*
b1 W
b11 R
1L
1H
#2900
0!
0"
0*
#2910
1!
1"
1*
b100 R
0L
b10 X
b10 W
0H
#2920
0!
0"
0*
#2930
1!
1"
1*
b11 W
b101 R
#2940
0!
0"
0*
#2950
1!
1"
1*
b110 R
b100 W
#2960
0!
0"
0*
#2970
1!
1"
1*
b101 W
b111 R
#2980
0!
0"
0*
#2990
1!
1"
1*
b1000 R
b110 W
#3000
0!
0"
0*
#3010
1!
1"
1*
b111 W
b1001 R
#3020
0!
0"
0*
#3030
1!
1"
1*
b1010 R
b1000 W
#3040
0!
0"
0*
#3050
1!
1"
1*
b1001 W
b1011 R
#3060
0!
0"
0*
#3070
1!
1"
1*
b1100 R
b1010 W
#3080
0!
0"
0*
#3090
1!
1"
1*
b1011 W
b1101 R
1L
1H
#3100
0!
0"
0*
#3110
1!
1"
1*
b1110 R
0L
b100000000010 X
b1100 W
0H
#3120
0!
0"
0*
#3130
1!
1"
1*
b1101 W
b1111 R
#3140
0!
0"
0*
#3150
1!
1"
1*
b10000 R
1L
b1110 W
1H
#3160
0!
0"
0*
#3170
1!
1"
1*
b100100000000010 X
b1111 W
b10001 R
0L
0H
#3180
0!
0"
0*
#3190
1!
1"
1*
1M
b10000 W
1G
#3200
0!
0"
0*
